<?xml version="1.0"?>
<svg xmlns="http://www.w3.org/2000/svg" xmlns:xlink="http://www.w3.org/1999/xlink" viewBox="0 0 278.400000 128.000000" width="139.200000mm" height="64.000000mm" version="1.1">
<a xlink:href="mthoctavefilterb-0x7f2e19c5f3f0.svg">
<rect x="1.000000" y="1.000000" width="277.400000" height="127.000000" rx="0" ry="0" style="stroke:none;fill:#cccccc;"/>
<rect x="0.000000" y="0.000000" width="277.400000" height="127.000000" rx="0" ry="0" style="stroke:none;fill:#ffffff;"/>
</a>
<text x="10.000000" y="7.000000" font-family="Arial" font-size="7"></text>
<a xlink:href="mth-0x7f2e19c58220.svg">
<rect x="33.000000" y="25.000000" width="154.800000" height="80.000000" rx="0" ry="0" style="stroke:none;fill:#cccccc;"/>
<rect x="32.000000" y="24.000000" width="154.800000" height="80.000000" rx="0" ry="0" style="stroke:none;fill:#003366;"/>
</a>
<a xlink:href="mth-0x7f2e19c58220.svg">
<text x="109.400000" y="66.000000" font-family="Arial" font-size="7" text-anchor="middle" fill="#FFFFFF">mth_octave_analyzer(5)(1)(10000)(10)</text>
</a>
<circle cx="34.000000" cy="26.000000" r="1"/>
<line x1="29.000000" y1="63.000000" x2="32.000000" y2="64.000000"  transform="rotate(0.000000,32.000000,64.000000)" style="stroke: black; stroke-width:0.25;"/>
<line x1="29.000000" y1="65.000000" x2="32.000000" y2="64.000000"  transform="rotate(0.000000,32.000000,64.000000)" style="stroke: black; stroke-width:0.25;"/>
<a xlink:href="delayeq-0x7f2e19c5f150.svg">
<rect x="195.800000" y="25.000000" width="51.600000" height="80.000000" rx="0" ry="0" style="stroke:none;fill:#cccccc;"/>
<rect x="194.800000" y="24.000000" width="51.600000" height="80.000000" rx="0" ry="0" style="stroke:none;fill:#003366;"/>
</a>
<a xlink:href="delayeq-0x7f2e19c5f150.svg">
<text x="220.600000" y="66.000000" font-family="Arial" font-size="7" text-anchor="middle" fill="#FFFFFF">delayeq(10)</text>
</a>
<circle cx="196.800000" cy="26.000000" r="1"/>
<line x1="191.800000" y1="27.000000" x2="194.800000" y2="28.000000"  transform="rotate(0.000000,194.800000,28.000000)" style="stroke: black; stroke-width:0.25;"/>
<line x1="191.800000" y1="29.000000" x2="194.800000" y2="28.000000"  transform="rotate(0.000000,194.800000,28.000000)" style="stroke: black; stroke-width:0.25;"/>
<line x1="191.800000" y1="35.000000" x2="194.800000" y2="36.000000"  transform="rotate(0.000000,194.800000,36.000000)" style="stroke: black; stroke-width:0.25;"/>
<line x1="191.800000" y1="37.000000" x2="194.800000" y2="36.000000"  transform="rotate(0.000000,194.800000,36.000000)" style="stroke: black; stroke-width:0.25;"/>
<line x1="191.800000" y1="43.000000" x2="194.800000" y2="44.000000"  transform="rotate(0.000000,194.800000,44.000000)" style="stroke: black; stroke-width:0.25;"/>
<line x1="191.800000" y1="45.000000" x2="194.800000" y2="44.000000"  transform="rotate(0.000000,194.800000,44.000000)" style="stroke: black; stroke-width:0.25;"/>
<line x1="191.800000" y1="51.000000" x2="194.800000" y2="52.000000"  transform="rotate(0.000000,194.800000,52.000000)" style="stroke: black; stroke-width:0.25;"/>
<line x1="191.800000" y1="53.000000" x2="194.800000" y2="52.000000"  transform="rotate(0.000000,194.800000,52.000000)" style="stroke: black; stroke-width:0.25;"/>
<line x1="191.800000" y1="59.000000" x2="194.800000" y2="60.000000"  transform="rotate(0.000000,194.800000,60.000000)" style="stroke: black; stroke-width:0.25;"/>
<line x1="191.800000" y1="61.000000" x2="194.800000" y2="60.000000"  transform="rotate(0.000000,194.800000,60.000000)" style="stroke: black; stroke-width:0.25;"/>
<line x1="191.800000" y1="67.000000" x2="194.800000" y2="68.000000"  transform="rotate(0.000000,194.800000,68.000000)" style="stroke: black; stroke-width:0.25;"/>
<line x1="191.800000" y1="69.000000" x2="194.800000" y2="68.000000"  transform="rotate(0.000000,194.800000,68.000000)" style="stroke: black; stroke-width:0.25;"/>
<line x1="191.800000" y1="75.000000" x2="194.800000" y2="76.000000"  transform="rotate(0.000000,194.800000,76.000000)" style="stroke: black; stroke-width:0.25;"/>
<line x1="191.800000" y1="77.000000" x2="194.800000" y2="76.000000"  transform="rotate(0.000000,194.800000,76.000000)" style="stroke: black; stroke-width:0.25;"/>
<line x1="191.800000" y1="83.000000" x2="194.800000" y2="84.000000"  transform="rotate(0.000000,194.800000,84.000000)" style="stroke: black; stroke-width:0.25;"/>
<line x1="191.800000" y1="85.000000" x2="194.800000" y2="84.000000"  transform="rotate(0.000000,194.800000,84.000000)" style="stroke: black; stroke-width:0.25;"/>
<line x1="191.800000" y1="91.000000" x2="194.800000" y2="92.000000"  transform="rotate(0.000000,194.800000,92.000000)" style="stroke: black; stroke-width:0.25;"/>
<line x1="191.800000" y1="93.000000" x2="194.800000" y2="92.000000"  transform="rotate(0.000000,194.800000,92.000000)" style="stroke: black; stroke-width:0.25;"/>
<line x1="191.800000" y1="99.000000" x2="194.800000" y2="100.000000"  transform="rotate(0.000000,194.800000,100.000000)" style="stroke: black; stroke-width:0.25;"/>
<line x1="191.800000" y1="101.000000" x2="194.800000" y2="100.000000"  transform="rotate(0.000000,194.800000,100.000000)" style="stroke: black; stroke-width:0.25;"/>
<line x1="15.000000" y1="15.000000" x2="15.000000" y2="113.000000"  style="stroke: black; stroke-linecap:round; stroke-width:0.25; stroke-dasharray:3,3;"/>
<line x1="15.000000" y1="113.000000" x2="263.400000" y2="113.000000"  style="stroke: black; stroke-linecap:round; stroke-width:0.25; stroke-dasharray:3,3;"/>
<line x1="263.400000" y1="113.000000" x2="263.400000" y2="15.000000"  style="stroke: black; stroke-linecap:round; stroke-width:0.25; stroke-dasharray:3,3;"/>
<line x1="15.000000" y1="15.000000" x2="20.000000" y2="15.000000"  style="stroke: black; stroke-linecap:round; stroke-width:0.25; stroke-dasharray:3,3;"/>
<line x1="119.975000" y1="15.000000" x2="263.400000" y2="15.000000"  style="stroke: black; stroke-linecap:round; stroke-width:0.25; stroke-dasharray:3,3;"/>
<text x="20.000000" y="17.000000" font-family="Arial" font-size="7">mth_octave_fi...1)(10000)(10)</text>
<line x1="265.400000" y1="27.000000" x2="268.400000" y2="28.000000"  transform="rotate(0.000000,268.400000,28.000000)" style="stroke: black; stroke-width:0.25;"/>
<line x1="265.400000" y1="29.000000" x2="268.400000" y2="28.000000"  transform="rotate(0.000000,268.400000,28.000000)" style="stroke: black; stroke-width:0.25;"/>
<line x1="265.400000" y1="35.000000" x2="268.400000" y2="36.000000"  transform="rotate(0.000000,268.400000,36.000000)" style="stroke: black; stroke-width:0.25;"/>
<line x1="265.400000" y1="37.000000" x2="268.400000" y2="36.000000"  transform="rotate(0.000000,268.400000,36.000000)" style="stroke: black; stroke-width:0.25;"/>
<line x1="265.400000" y1="43.000000" x2="268.400000" y2="44.000000"  transform="rotate(0.000000,268.400000,44.000000)" style="stroke: black; stroke-width:0.25;"/>
<line x1="265.400000" y1="45.000000" x2="268.400000" y2="44.000000"  transform="rotate(0.000000,268.400000,44.000000)" style="stroke: black; stroke-width:0.25;"/>
<line x1="265.400000" y1="51.000000" x2="268.400000" y2="52.000000"  transform="rotate(0.000000,268.400000,52.000000)" style="stroke: black; stroke-width:0.25;"/>
<line x1="265.400000" y1="53.000000" x2="268.400000" y2="52.000000"  transform="rotate(0.000000,268.400000,52.000000)" style="stroke: black; stroke-width:0.25;"/>
<line x1="265.400000" y1="59.000000" x2="268.400000" y2="60.000000"  transform="rotate(0.000000,268.400000,60.000000)" style="stroke: black; stroke-width:0.25;"/>
<line x1="265.400000" y1="61.000000" x2="268.400000" y2="60.000000"  transform="rotate(0.000000,268.400000,60.000000)" style="stroke: black; stroke-width:0.25;"/>
<line x1="265.400000" y1="67.000000" x2="268.400000" y2="68.000000"  transform="rotate(0.000000,268.400000,68.000000)" style="stroke: black; stroke-width:0.25;"/>
<line x1="265.400000" y1="69.000000" x2="268.400000" y2="68.000000"  transform="rotate(0.000000,268.400000,68.000000)" style="stroke: black; stroke-width:0.25;"/>
<line x1="265.400000" y1="75.000000" x2="268.400000" y2="76.000000"  transform="rotate(0.000000,268.400000,76.000000)" style="stroke: black; stroke-width:0.25;"/>
<line x1="265.400000" y1="77.000000" x2="268.400000" y2="76.000000"  transform="rotate(0.000000,268.400000,76.000000)" style="stroke: black; stroke-width:0.25;"/>
<line x1="265.400000" y1="83.000000" x2="268.400000" y2="84.000000"  transform="rotate(0.000000,268.400000,84.000000)" style="stroke: black; stroke-width:0.25;"/>
<line x1="265.400000" y1="85.000000" x2="268.400000" y2="84.000000"  transform="rotate(0.000000,268.400000,84.000000)" style="stroke: black; stroke-width:0.25;"/>
<line x1="265.400000" y1="91.000000" x2="268.400000" y2="92.000000"  transform="rotate(0.000000,268.400000,92.000000)" style="stroke: black; stroke-width:0.25;"/>
<line x1="265.400000" y1="93.000000" x2="268.400000" y2="92.000000"  transform="rotate(0.000000,268.400000,92.000000)" style="stroke: black; stroke-width:0.25;"/>
<line x1="265.400000" y1="99.000000" x2="268.400000" y2="100.000000"  transform="rotate(0.000000,268.400000,100.000000)" style="stroke: black; stroke-width:0.25;"/>
<line x1="265.400000" y1="101.000000" x2="268.400000" y2="100.000000"  transform="rotate(0.000000,268.400000,100.000000)" style="stroke: black; stroke-width:0.25;"/>
<line x1="10.000000" y1="64.000000" x2="20.000000" y2="64.000000"  style="stroke:black; stroke-linecap:round; stroke-width:0.25;"/>
<line x1="20.000000" y1="64.000000" x2="24.000000" y2="64.000000"  style="stroke:black; stroke-linecap:round; stroke-width:0.25;"/>
<line x1="24.000000" y1="64.000000" x2="28.000000" y2="64.000000"  style="stroke:black; stroke-linecap:round; stroke-width:0.25;"/>
<line x1="28.000000" y1="64.000000" x2="28.000000" y2="64.000000"  style="stroke:black; stroke-linecap:round; stroke-width:0.25;"/>
<line x1="28.000000" y1="64.000000" x2="32.000000" y2="64.000000"  style="stroke:black; stroke-linecap:round; stroke-width:0.25;"/>
<line x1="186.800000" y1="28.000000" x2="190.800000" y2="28.000000"  style="stroke:black; stroke-linecap:round; stroke-width:0.25;"/>
<line x1="186.800000" y1="36.000000" x2="190.800000" y2="36.000000"  style="stroke:black; stroke-linecap:round; stroke-width:0.25;"/>
<line x1="186.800000" y1="44.000000" x2="190.800000" y2="44.000000"  style="stroke:black; stroke-linecap:round; stroke-width:0.25;"/>
<line x1="186.800000" y1="52.000000" x2="190.800000" y2="52.000000"  style="stroke:black; stroke-linecap:round; stroke-width:0.25;"/>
<line x1="186.800000" y1="60.000000" x2="190.800000" y2="60.000000"  style="stroke:black; stroke-linecap:round; stroke-width:0.25;"/>
<line x1="186.800000" y1="68.000000" x2="190.800000" y2="68.000000"  style="stroke:black; stroke-linecap:round; stroke-width:0.25;"/>
<line x1="186.800000" y1="76.000000" x2="190.800000" y2="76.000000"  style="stroke:black; stroke-linecap:round; stroke-width:0.25;"/>
<line x1="186.800000" y1="84.000000" x2="190.800000" y2="84.000000"  style="stroke:black; stroke-linecap:round; stroke-width:0.25;"/>
<line x1="186.800000" y1="92.000000" x2="190.800000" y2="92.000000"  style="stroke:black; stroke-linecap:round; stroke-width:0.25;"/>
<line x1="186.800000" y1="100.000000" x2="190.800000" y2="100.000000"  style="stroke:black; stroke-linecap:round; stroke-width:0.25;"/>
<line x1="190.800000" y1="28.000000" x2="190.800000" y2="28.000000"  style="stroke:black; stroke-linecap:round; stroke-width:0.25;"/>
<line x1="190.800000" y1="28.000000" x2="194.800000" y2="28.000000"  style="stroke:black; stroke-linecap:round; stroke-width:0.25;"/>
<line x1="190.800000" y1="36.000000" x2="190.800000" y2="36.000000"  style="stroke:black; stroke-linecap:round; stroke-width:0.25;"/>
<line x1="190.800000" y1="36.000000" x2="194.800000" y2="36.000000"  style="stroke:black; stroke-linecap:round; stroke-width:0.25;"/>
<line x1="190.800000" y1="44.000000" x2="190.800000" y2="44.000000"  style="stroke:black; stroke-linecap:round; stroke-width:0.25;"/>
<line x1="190.800000" y1="44.000000" x2="194.800000" y2="44.000000"  style="stroke:black; stroke-linecap:round; stroke-width:0.25;"/>
<line x1="190.800000" y1="52.000000" x2="190.800000" y2="52.000000"  style="stroke:black; stroke-linecap:round; stroke-width:0.25;"/>
<line x1="190.800000" y1="52.000000" x2="194.800000" y2="52.000000"  style="stroke:black; stroke-linecap:round; stroke-width:0.25;"/>
<line x1="190.800000" y1="60.000000" x2="190.800000" y2="60.000000"  style="stroke:black; stroke-linecap:round; stroke-width:0.25;"/>
<line x1="190.800000" y1="60.000000" x2="194.800000" y2="60.000000"  style="stroke:black; stroke-linecap:round; stroke-width:0.25;"/>
<line x1="190.800000" y1="68.000000" x2="190.800000" y2="68.000000"  style="stroke:black; stroke-linecap:round; stroke-width:0.25;"/>
<line x1="190.800000" y1="68.000000" x2="194.800000" y2="68.000000"  style="stroke:black; stroke-linecap:round; stroke-width:0.25;"/>
<line x1="190.800000" y1="76.000000" x2="190.800000" y2="76.000000"  style="stroke:black; stroke-linecap:round; stroke-width:0.25;"/>
<line x1="190.800000" y1="76.000000" x2="194.800000" y2="76.000000"  style="stroke:black; stroke-linecap:round; stroke-width:0.25;"/>
<line x1="190.800000" y1="84.000000" x2="190.800000" y2="84.000000"  style="stroke:black; stroke-linecap:round; stroke-width:0.25;"/>
<line x1="190.800000" y1="84.000000" x2="194.800000" y2="84.000000"  style="stroke:black; stroke-linecap:round; stroke-width:0.25;"/>
<line x1="190.800000" y1="92.000000" x2="190.800000" y2="92.000000"  style="stroke:black; stroke-linecap:round; stroke-width:0.25;"/>
<line x1="190.800000" y1="92.000000" x2="194.800000" y2="92.000000"  style="stroke:black; stroke-linecap:round; stroke-width:0.25;"/>
<line x1="190.800000" y1="100.000000" x2="190.800000" y2="100.000000"  style="stroke:black; stroke-linecap:round; stroke-width:0.25;"/>
<line x1="190.800000" y1="100.000000" x2="194.800000" y2="100.000000"  style="stroke:black; stroke-linecap:round; stroke-width:0.25;"/>
<line x1="246.400000" y1="28.000000" x2="250.400000" y2="28.000000"  style="stroke:black; stroke-linecap:round; stroke-width:0.25;"/>
<line x1="246.400000" y1="36.000000" x2="250.400000" y2="36.000000"  style="stroke:black; stroke-linecap:round; stroke-width:0.25;"/>
<line x1="246.400000" y1="44.000000" x2="250.400000" y2="44.000000"  style="stroke:black; stroke-linecap:round; stroke-width:0.25;"/>
<line x1="246.400000" y1="52.000000" x2="250.400000" y2="52.000000"  style="stroke:black; stroke-linecap:round; stroke-width:0.25;"/>
<line x1="246.400000" y1="60.000000" x2="250.400000" y2="60.000000"  style="stroke:black; stroke-linecap:round; stroke-width:0.25;"/>
<line x1="246.400000" y1="68.000000" x2="250.400000" y2="68.000000"  style="stroke:black; stroke-linecap:round; stroke-width:0.25;"/>
<line x1="246.400000" y1="76.000000" x2="250.400000" y2="76.000000"  style="stroke:black; stroke-linecap:round; stroke-width:0.25;"/>
<line x1="246.400000" y1="84.000000" x2="250.400000" y2="84.000000"  style="stroke:black; stroke-linecap:round; stroke-width:0.25;"/>
<line x1="246.400000" y1="92.000000" x2="250.400000" y2="92.000000"  style="stroke:black; stroke-linecap:round; stroke-width:0.25;"/>
<line x1="246.400000" y1="100.000000" x2="250.400000" y2="100.000000"  style="stroke:black; stroke-linecap:round; stroke-width:0.25;"/>
<line x1="250.400000" y1="28.000000" x2="250.400000" y2="28.000000"  style="stroke:black; stroke-linecap:round; stroke-width:0.25;"/>
<line x1="250.400000" y1="28.000000" x2="254.400000" y2="28.000000"  style="stroke:black; stroke-linecap:round; stroke-width:0.25;"/>
<line x1="250.400000" y1="36.000000" x2="250.400000" y2="36.000000"  style="stroke:black; stroke-linecap:round; stroke-width:0.25;"/>
<line x1="250.400000" y1="36.000000" x2="254.400000" y2="36.000000"  style="stroke:black; stroke-linecap:round; stroke-width:0.25;"/>
<line x1="250.400000" y1="44.000000" x2="250.400000" y2="44.000000"  style="stroke:black; stroke-linecap:round; stroke-width:0.25;"/>
<line x1="250.400000" y1="44.000000" x2="254.400000" y2="44.000000"  style="stroke:black; stroke-linecap:round; stroke-width:0.25;"/>
<line x1="250.400000" y1="52.000000" x2="250.400000" y2="52.000000"  style="stroke:black; stroke-linecap:round; stroke-width:0.25;"/>
<line x1="250.400000" y1="52.000000" x2="254.400000" y2="52.000000"  style="stroke:black; stroke-linecap:round; stroke-width:0.25;"/>
<line x1="250.400000" y1="60.000000" x2="250.400000" y2="60.000000"  style="stroke:black; stroke-linecap:round; stroke-width:0.25;"/>
<line x1="250.400000" y1="60.000000" x2="254.400000" y2="60.000000"  style="stroke:black; stroke-linecap:round; stroke-width:0.25;"/>
<line x1="250.400000" y1="68.000000" x2="250.400000" y2="68.000000"  style="stroke:black; stroke-linecap:round; stroke-width:0.25;"/>
<line x1="250.400000" y1="68.000000" x2="254.400000" y2="68.000000"  style="stroke:black; stroke-linecap:round; stroke-width:0.25;"/>
<line x1="250.400000" y1="76.000000" x2="250.400000" y2="76.000000"  style="stroke:black; stroke-linecap:round; stroke-width:0.25;"/>
<line x1="250.400000" y1="76.000000" x2="254.400000" y2="76.000000"  style="stroke:black; stroke-linecap:round; stroke-width:0.25;"/>
<line x1="250.400000" y1="84.000000" x2="250.400000" y2="84.000000"  style="stroke:black; stroke-linecap:round; stroke-width:0.25;"/>
<line x1="250.400000" y1="84.000000" x2="254.400000" y2="84.000000"  style="stroke:black; stroke-linecap:round; stroke-width:0.25;"/>
<line x1="250.400000" y1="92.000000" x2="250.400000" y2="92.000000"  style="stroke:black; stroke-linecap:round; stroke-width:0.25;"/>
<line x1="250.400000" y1="92.000000" x2="254.400000" y2="92.000000"  style="stroke:black; stroke-linecap:round; stroke-width:0.25;"/>
<line x1="250.400000" y1="100.000000" x2="250.400000" y2="100.000000"  style="stroke:black; stroke-linecap:round; stroke-width:0.25;"/>
<line x1="250.400000" y1="100.000000" x2="254.400000" y2="100.000000"  style="stroke:black; stroke-linecap:round; stroke-width:0.25;"/>
<line x1="254.400000" y1="28.000000" x2="258.400000" y2="28.000000"  style="stroke:black; stroke-linecap:round; stroke-width:0.25;"/>
<line x1="254.400000" y1="36.000000" x2="258.400000" y2="36.000000"  style="stroke:black; stroke-linecap:round; stroke-width:0.25;"/>
<line x1="254.400000" y1="44.000000" x2="258.400000" y2="44.000000"  style="stroke:black; stroke-linecap:round; stroke-width:0.25;"/>
<line x1="254.400000" y1="52.000000" x2="258.400000" y2="52.000000"  style="stroke:black; stroke-linecap:round; stroke-width:0.25;"/>
<line x1="254.400000" y1="60.000000" x2="258.400000" y2="60.000000"  style="stroke:black; stroke-linecap:round; stroke-width:0.25;"/>
<line x1="254.400000" y1="68.000000" x2="258.400000" y2="68.000000"  style="stroke:black; stroke-linecap:round; stroke-width:0.25;"/>
<line x1="254.400000" y1="76.000000" x2="258.400000" y2="76.000000"  style="stroke:black; stroke-linecap:round; stroke-width:0.25;"/>
<line x1="254.400000" y1="84.000000" x2="258.400000" y2="84.000000"  style="stroke:black; stroke-linecap:round; stroke-width:0.25;"/>
<line x1="254.400000" y1="92.000000" x2="258.400000" y2="92.000000"  style="stroke:black; stroke-linecap:round; stroke-width:0.25;"/>
<line x1="254.400000" y1="100.000000" x2="258.400000" y2="100.000000"  style="stroke:black; stroke-linecap:round; stroke-width:0.25;"/>
<line x1="258.400000" y1="28.000000" x2="268.400000" y2="28.000000"  style="stroke:black; stroke-linecap:round; stroke-width:0.25;"/>
<line x1="258.400000" y1="36.000000" x2="268.400000" y2="36.000000"  style="stroke:black; stroke-linecap:round; stroke-width:0.25;"/>
<line x1="258.400000" y1="44.000000" x2="268.400000" y2="44.000000"  style="stroke:black; stroke-linecap:round; stroke-width:0.25;"/>
<line x1="258.400000" y1="52.000000" x2="268.400000" y2="52.000000"  style="stroke:black; stroke-linecap:round; stroke-width:0.25;"/>
<line x1="258.400000" y1="60.000000" x2="268.400000" y2="60.000000"  style="stroke:black; stroke-linecap:round; stroke-width:0.25;"/>
<line x1="258.400000" y1="68.000000" x2="268.400000" y2="68.000000"  style="stroke:black; stroke-linecap:round; stroke-width:0.25;"/>
<line x1="258.400000" y1="76.000000" x2="268.400000" y2="76.000000"  style="stroke:black; stroke-linecap:round; stroke-width:0.25;"/>
<line x1="258.400000" y1="84.000000" x2="268.400000" y2="84.000000"  style="stroke:black; stroke-linecap:round; stroke-width:0.25;"/>
<line x1="258.400000" y1="92.000000" x2="268.400000" y2="92.000000"  style="stroke:black; stroke-linecap:round; stroke-width:0.25;"/>
<line x1="258.400000" y1="100.000000" x2="268.400000" y2="100.000000"  style="stroke:black; stroke-linecap:round; stroke-width:0.25;"/>
</svg>
