<?xml version="1.0"?>
<svg xmlns="http://www.w3.org/2000/svg" xmlns:xlink="http://www.w3.org/1999/xlink" viewBox="0 0 828.700000 360.000000" width="414.350000mm" height="180.000000mm" version="1.1">
<a xlink:href="process.svg">
<rect x="1.000000" y="1.000000" width="827.700000" height="359.000000" rx="0" ry="0" style="stroke:none;fill:#cccccc;"/>
<rect x="0.000000" y="0.000000" width="827.700000" height="359.000000" rx="0" ry="0" style="stroke:none;fill:#ffffff;"/>
</a>
<text x="10.000000" y="7.000000" font-family="Arial" font-size="7"></text>
<rect x="63.450000" y="89.000000" width="38.700000" height="24.000000" rx="0" ry="0" style="stroke:none;fill:#cccccc;"/>
<rect x="62.450000" y="88.000000" width="38.700000" height="24.000000" rx="0" ry="0" style="stroke:none;fill:#47945E;"/>
<text x="81.800000" y="102.000000" font-family="Arial" font-size="7" text-anchor="middle" fill="#FFFFFF">grainOut1</text>
<circle cx="64.450000" cy="90.000000" r="1"/>
<line x1="59.450000" y1="99.000000" x2="62.450000" y2="100.000000"  transform="rotate(0.000000,62.450000,100.000000)" style="stroke: black; stroke-width:0.25;"/>
<line x1="59.450000" y1="101.000000" x2="62.450000" y2="100.000000"  transform="rotate(0.000000,62.450000,100.000000)" style="stroke: black; stroke-width:0.25;"/>
<rect x="63.450000" y="121.000000" width="38.700000" height="24.000000" rx="0" ry="0" style="stroke:none;fill:#cccccc;"/>
<rect x="62.450000" y="120.000000" width="38.700000" height="24.000000" rx="0" ry="0" style="stroke:none;fill:#47945E;"/>
<text x="81.800000" y="134.000000" font-family="Arial" font-size="7" text-anchor="middle" fill="#FFFFFF">grainOut2</text>
<circle cx="64.450000" cy="122.000000" r="1"/>
<line x1="59.450000" y1="131.000000" x2="62.450000" y2="132.000000"  transform="rotate(0.000000,62.450000,132.000000)" style="stroke: black; stroke-width:0.25;"/>
<line x1="59.450000" y1="133.000000" x2="62.450000" y2="132.000000"  transform="rotate(0.000000,62.450000,132.000000)" style="stroke: black; stroke-width:0.25;"/>
<rect x="69.900000" y="153.000000" width="25.800000" height="24.000000" rx="0" ry="0" style="stroke:none;fill:#cccccc;"/>
<rect x="68.900000" y="152.000000" width="25.800000" height="24.000000" rx="0" ry="0" style="stroke:none;fill:#47945E;"/>
<text x="81.800000" y="166.000000" font-family="Arial" font-size="7" text-anchor="middle" fill="#FFFFFF">mic1</text>
<circle cx="70.900000" cy="154.000000" r="1"/>
<line x1="65.900000" y1="163.000000" x2="68.900000" y2="164.000000"  transform="rotate(0.000000,68.900000,164.000000)" style="stroke: black; stroke-width:0.25;"/>
<line x1="65.900000" y1="165.000000" x2="68.900000" y2="164.000000"  transform="rotate(0.000000,68.900000,164.000000)" style="stroke: black; stroke-width:0.25;"/>
<rect x="69.900000" y="185.000000" width="25.800000" height="24.000000" rx="0" ry="0" style="stroke:none;fill:#cccccc;"/>
<rect x="68.900000" y="184.000000" width="25.800000" height="24.000000" rx="0" ry="0" style="stroke:none;fill:#47945E;"/>
<text x="81.800000" y="198.000000" font-family="Arial" font-size="7" text-anchor="middle" fill="#FFFFFF">mic2</text>
<circle cx="70.900000" cy="186.000000" r="1"/>
<line x1="65.900000" y1="195.000000" x2="68.900000" y2="196.000000"  transform="rotate(0.000000,68.900000,196.000000)" style="stroke: black; stroke-width:0.25;"/>
<line x1="65.900000" y1="197.000000" x2="68.900000" y2="196.000000"  transform="rotate(0.000000,68.900000,196.000000)" style="stroke: black; stroke-width:0.25;"/>
<rect x="57.000000" y="217.000000" width="51.600000" height="24.000000" rx="0" ry="0" style="stroke:none;fill:#cccccc;"/>
<rect x="56.000000" y="216.000000" width="51.600000" height="24.000000" rx="0" ry="0" style="stroke:none;fill:#47945E;"/>
<text x="81.800000" y="230.000000" font-family="Arial" font-size="7" text-anchor="middle" fill="#FFFFFF">memWriteLev</text>
<circle cx="58.000000" cy="218.000000" r="1"/>
<line x1="53.000000" y1="227.000000" x2="56.000000" y2="228.000000"  transform="rotate(0.000000,56.000000,228.000000)" style="stroke: black; stroke-width:0.25;"/>
<line x1="53.000000" y1="229.000000" x2="56.000000" y2="228.000000"  transform="rotate(0.000000,56.000000,228.000000)" style="stroke: black; stroke-width:0.25;"/>
<rect x="63.450000" y="249.000000" width="38.700000" height="24.000000" rx="0" ry="0" style="stroke:none;fill:#cccccc;"/>
<rect x="62.450000" y="248.000000" width="38.700000" height="24.000000" rx="0" ry="0" style="stroke:none;fill:#47945E;"/>
<text x="81.800000" y="262.000000" font-family="Arial" font-size="7" text-anchor="middle" fill="#FFFFFF">cntrlMain</text>
<circle cx="64.450000" cy="250.000000" r="1"/>
<line x1="59.450000" y1="259.000000" x2="62.450000" y2="260.000000"  transform="rotate(0.000000,62.450000,260.000000)" style="stroke: black; stroke-width:0.25;"/>
<line x1="59.450000" y1="261.000000" x2="62.450000" y2="260.000000"  transform="rotate(0.000000,62.450000,260.000000)" style="stroke: black; stroke-width:0.25;"/>
<rect x="240.550000" y="25.000000" width="25.800000" height="24.000000" rx="0" ry="0" style="stroke:none;fill:#cccccc;"/>
<rect x="239.550000" y="24.000000" width="25.800000" height="24.000000" rx="0" ry="0" style="stroke:none;fill:#47945E;"/>
<text x="252.450000" y="38.000000" font-family="Arial" font-size="7" text-anchor="middle" fill="#FFFFFF">mic1</text>
<circle cx="241.550000" cy="26.000000" r="1"/>
<rect x="240.550000" y="57.000000" width="25.800000" height="24.000000" rx="0" ry="0" style="stroke:none;fill:#cccccc;"/>
<rect x="239.550000" y="56.000000" width="25.800000" height="24.000000" rx="0" ry="0" style="stroke:none;fill:#47945E;"/>
<text x="252.450000" y="70.000000" font-family="Arial" font-size="7" text-anchor="middle" fill="#FFFFFF">mic2</text>
<circle cx="241.550000" cy="58.000000" r="1"/>
<a xlink:href="hp1-0x7f26a8a1ebb0.svg">
<rect x="274.350000" y="25.000000" width="38.700000" height="24.000000" rx="0" ry="0" style="stroke:none;fill:#cccccc;"/>
<rect x="273.350000" y="24.000000" width="38.700000" height="24.000000" rx="0" ry="0" style="stroke:none;fill:#003366;"/>
</a>
<a xlink:href="hp1-0x7f26a8a1ebb0.svg">
<text x="292.700000" y="38.000000" font-family="Arial" font-size="7" text-anchor="middle" fill="#FFFFFF">hp1(50)</text>
</a>
<circle cx="275.350000" cy="26.000000" r="1"/>
<line x1="270.350000" y1="35.000000" x2="273.350000" y2="36.000000"  transform="rotate(0.000000,273.350000,36.000000)" style="stroke: black; stroke-width:0.25;"/>
<line x1="270.350000" y1="37.000000" x2="273.350000" y2="36.000000"  transform="rotate(0.000000,273.350000,36.000000)" style="stroke: black; stroke-width:0.25;"/>
<a xlink:href="hp1-0x7f26a8a1ebb0.svg">
<rect x="274.350000" y="57.000000" width="38.700000" height="24.000000" rx="0" ry="0" style="stroke:none;fill:#cccccc;"/>
<rect x="273.350000" y="56.000000" width="38.700000" height="24.000000" rx="0" ry="0" style="stroke:none;fill:#003366;"/>
</a>
<a xlink:href="hp1-0x7f26a8a1ebb0.svg">
<text x="292.700000" y="70.000000" font-family="Arial" font-size="7" text-anchor="middle" fill="#FFFFFF">hp1(50)</text>
</a>
<circle cx="275.350000" cy="58.000000" r="1"/>
<line x1="270.350000" y1="67.000000" x2="273.350000" y2="68.000000"  transform="rotate(0.000000,273.350000,68.000000)" style="stroke: black; stroke-width:0.25;"/>
<line x1="270.350000" y1="69.000000" x2="273.350000" y2="68.000000"  transform="rotate(0.000000,273.350000,68.000000)" style="stroke: black; stroke-width:0.25;"/>
<a xlink:href="lp1p-0x7f26a8a2fe80.svg">
<rect x="321.050000" y="25.000000" width="51.600000" height="24.000000" rx="0" ry="0" style="stroke:none;fill:#cccccc;"/>
<rect x="320.050000" y="24.000000" width="51.600000" height="24.000000" rx="0" ry="0" style="stroke:none;fill:#003366;"/>
</a>
<a xlink:href="lp1p-0x7f26a8a2fe80.svg">
<text x="345.850000" y="38.000000" font-family="Arial" font-size="7" text-anchor="middle" fill="#FFFFFF">lp1p(6000)</text>
</a>
<circle cx="322.050000" cy="26.000000" r="1"/>
<line x1="317.050000" y1="35.000000" x2="320.050000" y2="36.000000"  transform="rotate(0.000000,320.050000,36.000000)" style="stroke: black; stroke-width:0.25;"/>
<line x1="317.050000" y1="37.000000" x2="320.050000" y2="36.000000"  transform="rotate(0.000000,320.050000,36.000000)" style="stroke: black; stroke-width:0.25;"/>
<a xlink:href="lp1p-0x7f26a8a2fe80.svg">
<rect x="321.050000" y="57.000000" width="51.600000" height="24.000000" rx="0" ry="0" style="stroke:none;fill:#cccccc;"/>
<rect x="320.050000" y="56.000000" width="51.600000" height="24.000000" rx="0" ry="0" style="stroke:none;fill:#003366;"/>
</a>
<a xlink:href="lp1p-0x7f26a8a2fe80.svg">
<text x="345.850000" y="70.000000" font-family="Arial" font-size="7" text-anchor="middle" fill="#FFFFFF">lp1p(6000)</text>
</a>
<circle cx="322.050000" cy="58.000000" r="1"/>
<line x1="317.050000" y1="67.000000" x2="320.050000" y2="68.000000"  transform="rotate(0.000000,320.050000,68.000000)" style="stroke: black; stroke-width:0.25;"/>
<line x1="317.050000" y1="69.000000" x2="320.050000" y2="68.000000"  transform="rotate(0.000000,320.050000,68.000000)" style="stroke: black; stroke-width:0.25;"/>
<a xlink:href="integrator-0x7f26a8a4a100.svg">
<rect x="380.650000" y="25.000000" width="77.400000" height="24.000000" rx="0" ry="0" style="stroke:none;fill:#cccccc;"/>
<rect x="379.650000" y="24.000000" width="77.400000" height="24.000000" rx="0" ry="0" style="stroke:none;fill:#003366;"/>
</a>
<a xlink:href="integrator-0x7f26a8a4a100.svg">
<text x="418.350000" y="38.000000" font-family="Arial" font-size="7" text-anchor="middle" fill="#FFFFFF">integrator(0.01f)</text>
</a>
<circle cx="381.650000" cy="26.000000" r="1"/>
<line x1="376.650000" y1="35.000000" x2="379.650000" y2="36.000000"  transform="rotate(0.000000,379.650000,36.000000)" style="stroke: black; stroke-width:0.25;"/>
<line x1="376.650000" y1="37.000000" x2="379.650000" y2="36.000000"  transform="rotate(0.000000,379.650000,36.000000)" style="stroke: black; stroke-width:0.25;"/>
<a xlink:href="integrator-0x7f26a8a4a100.svg">
<rect x="380.650000" y="57.000000" width="77.400000" height="24.000000" rx="0" ry="0" style="stroke:none;fill:#cccccc;"/>
<rect x="379.650000" y="56.000000" width="77.400000" height="24.000000" rx="0" ry="0" style="stroke:none;fill:#003366;"/>
</a>
<a xlink:href="integrator-0x7f26a8a4a100.svg">
<text x="418.350000" y="70.000000" font-family="Arial" font-size="7" text-anchor="middle" fill="#FFFFFF">integrator(0.01f)</text>
</a>
<circle cx="381.650000" cy="58.000000" r="1"/>
<line x1="376.650000" y1="67.000000" x2="379.650000" y2="68.000000"  transform="rotate(0.000000,379.650000,68.000000)" style="stroke: black; stroke-width:0.25;"/>
<line x1="376.650000" y1="69.000000" x2="379.650000" y2="68.000000"  transform="rotate(0.000000,379.650000,68.000000)" style="stroke: black; stroke-width:0.25;"/>
<a xlink:href="delay-0x7f26a8a4c8d0.svg">
<rect x="466.050000" y="25.000000" width="90.300000" height="24.000000" rx="0" ry="0" style="stroke:none;fill:#cccccc;"/>
<rect x="465.050000" y="24.000000" width="90.300000" height="24.000000" rx="0" ry="0" style="stroke:none;fill:#003366;"/>
</a>
<a xlink:href="delay-0x7f26a8a4c8d0.svg">
<text x="510.200000" y="38.000000" font-family="Arial" font-size="7" text-anchor="middle" fill="#FFFFFF">delay(0.01f)(0.999f)</text>
</a>
<circle cx="467.050000" cy="26.000000" r="1"/>
<line x1="462.050000" y1="35.000000" x2="465.050000" y2="36.000000"  transform="rotate(0.000000,465.050000,36.000000)" style="stroke: black; stroke-width:0.25;"/>
<line x1="462.050000" y1="37.000000" x2="465.050000" y2="36.000000"  transform="rotate(0.000000,465.050000,36.000000)" style="stroke: black; stroke-width:0.25;"/>
<a xlink:href="delay-0x7f26a8a4c8d0.svg">
<rect x="466.050000" y="57.000000" width="90.300000" height="24.000000" rx="0" ry="0" style="stroke:none;fill:#cccccc;"/>
<rect x="465.050000" y="56.000000" width="90.300000" height="24.000000" rx="0" ry="0" style="stroke:none;fill:#003366;"/>
</a>
<a xlink:href="delay-0x7f26a8a4c8d0.svg">
<text x="510.200000" y="70.000000" font-family="Arial" font-size="7" text-anchor="middle" fill="#FFFFFF">delay(0.01f)(0.999f)</text>
</a>
<circle cx="467.050000" cy="58.000000" r="1"/>
<line x1="462.050000" y1="67.000000" x2="465.050000" y2="68.000000"  transform="rotate(0.000000,465.050000,68.000000)" style="stroke: black; stroke-width:0.25;"/>
<line x1="462.050000" y1="69.000000" x2="465.050000" y2="68.000000"  transform="rotate(0.000000,465.050000,68.000000)" style="stroke: black; stroke-width:0.25;"/>
<a xlink:href="lowpass-0x7f26a8a4df20.svg">
<rect x="564.350000" y="25.000000" width="77.400000" height="24.000000" rx="0" ry="0" style="stroke:none;fill:#cccccc;"/>
<rect x="563.350000" y="24.000000" width="77.400000" height="24.000000" rx="0" ry="0" style="stroke:none;fill:#003366;"/>
</a>
<a xlink:href="lowpass-0x7f26a8a4df20.svg">
<text x="602.050000" y="38.000000" font-family="Arial" font-size="7" text-anchor="middle" fill="#FFFFFF">lowpass(5)(0.5f)</text>
</a>
<circle cx="565.350000" cy="26.000000" r="1"/>
<line x1="560.350000" y1="35.000000" x2="563.350000" y2="36.000000"  transform="rotate(0.000000,563.350000,36.000000)" style="stroke: black; stroke-width:0.25;"/>
<line x1="560.350000" y1="37.000000" x2="563.350000" y2="36.000000"  transform="rotate(0.000000,563.350000,36.000000)" style="stroke: black; stroke-width:0.25;"/>
<a xlink:href="lowpass-0x7f26a8a4df20.svg">
<rect x="564.350000" y="57.000000" width="77.400000" height="24.000000" rx="0" ry="0" style="stroke:none;fill:#cccccc;"/>
<rect x="563.350000" y="56.000000" width="77.400000" height="24.000000" rx="0" ry="0" style="stroke:none;fill:#003366;"/>
</a>
<a xlink:href="lowpass-0x7f26a8a4df20.svg">
<text x="602.050000" y="70.000000" font-family="Arial" font-size="7" text-anchor="middle" fill="#FFFFFF">lowpass(5)(0.5f)</text>
</a>
<circle cx="565.350000" cy="58.000000" r="1"/>
<line x1="560.350000" y1="67.000000" x2="563.350000" y2="68.000000"  transform="rotate(0.000000,563.350000,68.000000)" style="stroke: black; stroke-width:0.25;"/>
<line x1="560.350000" y1="69.000000" x2="563.350000" y2="68.000000"  transform="rotate(0.000000,563.350000,68.000000)" style="stroke: black; stroke-width:0.25;"/>
<rect x="116.600000" y="89.000000" width="38.700000" height="24.000000" rx="0" ry="0" style="stroke:none;fill:#cccccc;"/>
<rect x="115.600000" y="88.000000" width="38.700000" height="24.000000" rx="0" ry="0" style="stroke:none;fill:#47945E;"/>
<text x="134.950000" y="102.000000" font-family="Arial" font-size="7" text-anchor="middle" fill="#FFFFFF">grainOut1</text>
<circle cx="117.600000" cy="90.000000" r="1"/>
<rect x="116.600000" y="121.000000" width="38.700000" height="24.000000" rx="0" ry="0" style="stroke:none;fill:#cccccc;"/>
<rect x="115.600000" y="120.000000" width="38.700000" height="24.000000" rx="0" ry="0" style="stroke:none;fill:#47945E;"/>
<text x="134.950000" y="134.000000" font-family="Arial" font-size="7" text-anchor="middle" fill="#FFFFFF">grainOut2</text>
<circle cx="117.600000" cy="122.000000" r="1"/>
<rect x="171.300000" y="105.000000" width="24.000000" height="24.000000" rx="0" ry="0" style="stroke:none;fill:#cccccc;"/>
<rect x="170.300000" y="104.000000" width="24.000000" height="24.000000" rx="0" ry="0" style="stroke:none;fill:#4B71A1;"/>
<text x="182.300000" y="118.000000" font-family="Arial" font-size="7" text-anchor="middle" fill="#FFFFFF">+</text>
<circle cx="172.300000" cy="106.000000" r="1"/>
<line x1="167.300000" y1="111.000000" x2="170.300000" y2="112.000000"  transform="rotate(0.000000,170.300000,112.000000)" style="stroke: black; stroke-width:0.25;"/>
<line x1="167.300000" y1="113.000000" x2="170.300000" y2="112.000000"  transform="rotate(0.000000,170.300000,112.000000)" style="stroke: black; stroke-width:0.25;"/>
<line x1="167.300000" y1="119.000000" x2="170.300000" y2="120.000000"  transform="rotate(0.000000,170.300000,120.000000)" style="stroke: black; stroke-width:0.25;"/>
<line x1="167.300000" y1="121.000000" x2="170.300000" y2="120.000000"  transform="rotate(0.000000,170.300000,120.000000)" style="stroke: black; stroke-width:0.25;"/>
<a xlink:href="integrator-0x7f26a8a4a100.svg">
<rect x="203.300000" y="105.000000" width="77.400000" height="24.000000" rx="0" ry="0" style="stroke:none;fill:#cccccc;"/>
<rect x="202.300000" y="104.000000" width="77.400000" height="24.000000" rx="0" ry="0" style="stroke:none;fill:#003366;"/>
</a>
<a xlink:href="integrator-0x7f26a8a4a100.svg">
<text x="241.000000" y="118.000000" font-family="Arial" font-size="7" text-anchor="middle" fill="#FFFFFF">integrator(0.01f)</text>
</a>
<circle cx="204.300000" cy="106.000000" r="1"/>
<line x1="199.300000" y1="115.000000" x2="202.300000" y2="116.000000"  transform="rotate(0.000000,202.300000,116.000000)" style="stroke: black; stroke-width:0.25;"/>
<line x1="199.300000" y1="117.000000" x2="202.300000" y2="116.000000"  transform="rotate(0.000000,202.300000,116.000000)" style="stroke: black; stroke-width:0.25;"/>
<a xlink:href="delay-0x7f26a8a50da0.svg">
<rect x="288.700000" y="105.000000" width="154.800000" height="24.000000" rx="0" ry="0" style="stroke:none;fill:#cccccc;"/>
<rect x="287.700000" y="104.000000" width="154.800000" height="24.000000" rx="0" ry="0" style="stroke:none;fill:#003366;"/>
</a>
<a xlink:href="delay-0x7f26a8a50da0.svg">
<text x="365.100000" y="118.000000" font-family="Arial" font-size="7" text-anchor="middle" fill="#FFFFFF">delay(0.01f)(0.96999999999999997f)</text>
</a>
<circle cx="289.700000" cy="106.000000" r="1"/>
<line x1="284.700000" y1="115.000000" x2="287.700000" y2="116.000000"  transform="rotate(0.000000,287.700000,116.000000)" style="stroke: black; stroke-width:0.25;"/>
<line x1="284.700000" y1="117.000000" x2="287.700000" y2="116.000000"  transform="rotate(0.000000,287.700000,116.000000)" style="stroke: black; stroke-width:0.25;"/>
<a xlink:href="lowpass-0x7f26a8a4df20.svg">
<rect x="451.500000" y="105.000000" width="77.400000" height="24.000000" rx="0" ry="0" style="stroke:none;fill:#cccccc;"/>
<rect x="450.500000" y="104.000000" width="77.400000" height="24.000000" rx="0" ry="0" style="stroke:none;fill:#003366;"/>
</a>
<a xlink:href="lowpass-0x7f26a8a4df20.svg">
<text x="489.200000" y="118.000000" font-family="Arial" font-size="7" text-anchor="middle" fill="#FFFFFF">lowpass(5)(0.5f)</text>
</a>
<circle cx="452.500000" cy="106.000000" r="1"/>
<line x1="447.500000" y1="115.000000" x2="450.500000" y2="116.000000"  transform="rotate(0.000000,450.500000,116.000000)" style="stroke: black; stroke-width:0.25;"/>
<line x1="447.500000" y1="117.000000" x2="450.500000" y2="116.000000"  transform="rotate(0.000000,450.500000,116.000000)" style="stroke: black; stroke-width:0.25;"/>
<a xlink:href="delay-0x7f26a8a538e0.svg">
<rect x="562.900000" y="109.000000" width="77.400000" height="24.000000" rx="0" ry="0" style="stroke:none;fill:#cccccc;"/>
<rect x="561.900000" y="108.000000" width="77.400000" height="24.000000" rx="0" ry="0" style="stroke:none;fill:#003366;"/>
</a>
<a xlink:href="delay-0x7f26a8a538e0.svg">
<text x="600.600000" y="122.000000" font-family="Arial" font-size="7" text-anchor="middle" fill="#FFFFFF">delay(80)(-499.5f)</text>
</a>
<circle cx="563.900000" cy="110.000000" r="1"/>
<line x1="558.900000" y1="119.000000" x2="561.900000" y2="120.000000"  transform="rotate(0.000000,561.900000,120.000000)" style="stroke: black; stroke-width:0.25;"/>
<line x1="558.900000" y1="121.000000" x2="561.900000" y2="120.000000"  transform="rotate(0.000000,561.900000,120.000000)" style="stroke: black; stroke-width:0.25;"/>
<rect x="656.300000" y="105.000000" width="24.000000" height="24.000000" rx="0" ry="0" style="stroke:none;fill:#cccccc;"/>
<rect x="655.300000" y="104.000000" width="24.000000" height="24.000000" rx="0" ry="0" style="stroke:none;fill:#4B71A1;"/>
<text x="667.300000" y="118.000000" font-family="Arial" font-size="7" text-anchor="middle" fill="#FFFFFF">+</text>
<circle cx="657.300000" cy="106.000000" r="1"/>
<line x1="652.300000" y1="111.000000" x2="655.300000" y2="112.000000"  transform="rotate(0.000000,655.300000,112.000000)" style="stroke: black; stroke-width:0.25;"/>
<line x1="652.300000" y1="113.000000" x2="655.300000" y2="112.000000"  transform="rotate(0.000000,655.300000,112.000000)" style="stroke: black; stroke-width:0.25;"/>
<line x1="652.300000" y1="119.000000" x2="655.300000" y2="120.000000"  transform="rotate(0.000000,655.300000,120.000000)" style="stroke: black; stroke-width:0.25;"/>
<line x1="652.300000" y1="121.000000" x2="655.300000" y2="120.000000"  transform="rotate(0.000000,655.300000,120.000000)" style="stroke: black; stroke-width:0.25;"/>
<a xlink:href="mapsub-0x7f26a89475f0.svg">
<rect x="688.300000" y="105.000000" width="77.400000" height="24.000000" rx="0" ry="0" style="stroke:none;fill:#cccccc;"/>
<rect x="687.300000" y="104.000000" width="77.400000" height="24.000000" rx="0" ry="0" style="stroke:none;fill:#003366;"/>
</a>
<a xlink:href="mapsub-0x7f26a89475f0.svg">
<text x="726.000000" y="118.000000" font-family="Arial" font-size="7" text-anchor="middle" fill="#FFFFFF">mapsub(_)(1)(0.5f)</text>
</a>
<circle cx="689.300000" cy="106.000000" r="1"/>
<line x1="684.300000" y1="115.000000" x2="687.300000" y2="116.000000"  transform="rotate(0.000000,687.300000,116.000000)" style="stroke: black; stroke-width:0.25;"/>
<line x1="684.300000" y1="117.000000" x2="687.300000" y2="116.000000"  transform="rotate(0.000000,687.300000,116.000000)" style="stroke: black; stroke-width:0.25;"/>
<a xlink:href="timeIndex-0x7f26a8a54190.svg">
<rect x="347.750000" y="169.000000" width="64.500000" height="24.000000" rx="0" ry="0" style="stroke:none;fill:#cccccc;"/>
<rect x="346.750000" y="168.000000" width="64.500000" height="24.000000" rx="0" ry="0" style="stroke:none;fill:#003366;"/>
</a>
<a xlink:href="timeIndex-0x7f26a8a54190.svg">
<text x="379.000000" y="182.000000" font-family="Arial" font-size="7" text-anchor="middle" fill="#FFFFFF">timeIndex(40)</text>
</a>
<circle cx="348.750000" cy="170.000000" r="1"/>
<a xlink:href="mapmul-0x7f26a892d5f0.svg">
<rect x="444.250000" y="153.000000" width="90.300000" height="24.000000" rx="0" ry="0" style="stroke:none;fill:#cccccc;"/>
<rect x="443.250000" y="152.000000" width="90.300000" height="24.000000" rx="0" ry="0" style="stroke:none;fill:#003366;"/>
</a>
<a xlink:href="mapmul-0x7f26a892d5f0.svg">
<text x="488.400000" y="166.000000" font-family="Arial" font-size="7" text-anchor="middle" fill="#FFFFFF">mapmul(_)(-2)(0.5f)</text>
</a>
<circle cx="445.250000" cy="154.000000" r="1"/>
<line x1="440.250000" y1="163.000000" x2="443.250000" y2="164.000000"  transform="rotate(0.000000,443.250000,164.000000)" style="stroke: black; stroke-width:0.25;"/>
<line x1="440.250000" y1="165.000000" x2="443.250000" y2="164.000000"  transform="rotate(0.000000,443.250000,164.000000)" style="stroke: black; stroke-width:0.25;"/>
<a xlink:href="mapmul-0x7f26a892a2c0.svg">
<rect x="450.700000" y="185.000000" width="77.400000" height="24.000000" rx="0" ry="0" style="stroke:none;fill:#cccccc;"/>
<rect x="449.700000" y="184.000000" width="77.400000" height="24.000000" rx="0" ry="0" style="stroke:none;fill:#003366;"/>
</a>
<a xlink:href="mapmul-0x7f26a892a2c0.svg">
<text x="488.400000" y="198.000000" font-family="Arial" font-size="7" text-anchor="middle" fill="#FFFFFF">mapmul(_)(1)(0.5f)</text>
</a>
<circle cx="451.700000" cy="186.000000" r="1"/>
<line x1="446.700000" y1="195.000000" x2="449.700000" y2="196.000000"  transform="rotate(0.000000,449.700000,196.000000)" style="stroke: black; stroke-width:0.25;"/>
<line x1="446.700000" y1="197.000000" x2="449.700000" y2="196.000000"  transform="rotate(0.000000,449.700000,196.000000)" style="stroke: black; stroke-width:0.25;"/>
<a xlink:href="triangle1-0x7f26a8a548d0.svg">
<rect x="382.450000" y="217.000000" width="77.400000" height="24.000000" rx="0" ry="0" style="stroke:none;fill:#cccccc;"/>
<rect x="381.450000" y="216.000000" width="77.400000" height="24.000000" rx="0" ry="0" style="stroke:none;fill:#003366;"/>
</a>
<a xlink:href="triangle1-0x7f26a8a548d0.svg">
<text x="420.150000" y="230.000000" font-family="Arial" font-size="7" text-anchor="middle" fill="#FFFFFF">triangle1(40)(x22)</text>
</a>
<circle cx="383.450000" cy="218.000000" r="1"/>
<rect x="395.350000" y="249.000000" width="51.600000" height="24.000000" rx="0" ry="0" style="stroke:none;fill:#cccccc;"/>
<rect x="394.350000" y="248.000000" width="51.600000" height="24.000000" rx="0" ry="0" style="stroke:none;fill:#47945E;"/>
<text x="420.150000" y="262.000000" font-family="Arial" font-size="7" text-anchor="middle" fill="#FFFFFF">memWriteLev</text>
<circle cx="396.350000" cy="250.000000" r="1"/>
<rect x="475.850000" y="233.000000" width="24.000000" height="24.000000" rx="0" ry="0" style="stroke:none;fill:#cccccc;"/>
<rect x="474.850000" y="232.000000" width="24.000000" height="24.000000" rx="0" ry="0" style="stroke:none;fill:#4B71A1;"/>
<text x="486.850000" y="246.000000" font-family="Arial" font-size="7" text-anchor="middle" fill="#FFFFFF">*</text>
<circle cx="476.850000" cy="234.000000" r="1"/>
<line x1="471.850000" y1="239.000000" x2="474.850000" y2="240.000000"  transform="rotate(0.000000,474.850000,240.000000)" style="stroke: black; stroke-width:0.25;"/>
<line x1="471.850000" y1="241.000000" x2="474.850000" y2="240.000000"  transform="rotate(0.000000,474.850000,240.000000)" style="stroke: black; stroke-width:0.25;"/>
<line x1="471.850000" y1="247.000000" x2="474.850000" y2="248.000000"  transform="rotate(0.000000,474.850000,248.000000)" style="stroke: black; stroke-width:0.25;"/>
<line x1="471.850000" y1="249.000000" x2="474.850000" y2="248.000000"  transform="rotate(0.000000,474.850000,248.000000)" style="stroke: black; stroke-width:0.25;"/>
<a xlink:href="triangle2-0x7f26a8a54ee0.svg">
<rect x="402.450000" y="281.000000" width="77.400000" height="24.000000" rx="0" ry="0" style="stroke:none;fill:#cccccc;"/>
<rect x="401.450000" y="280.000000" width="77.400000" height="24.000000" rx="0" ry="0" style="stroke:none;fill:#003366;"/>
</a>
<a xlink:href="triangle2-0x7f26a8a54ee0.svg">
<text x="440.150000" y="294.000000" font-family="Arial" font-size="7" text-anchor="middle" fill="#FFFFFF">triangle2(40)(x23)</text>
</a>
<circle cx="403.450000" cy="282.000000" r="1"/>
<a xlink:href="triangle3-0x7f26a8a552b0.svg">
<rect x="408.900000" y="313.000000" width="64.500000" height="24.000000" rx="0" ry="0" style="stroke:none;fill:#cccccc;"/>
<rect x="407.900000" y="312.000000" width="64.500000" height="24.000000" rx="0" ry="0" style="stroke:none;fill:#003366;"/>
</a>
<a xlink:href="triangle3-0x7f26a8a552b0.svg">
<text x="440.150000" y="326.000000" font-family="Arial" font-size="7" text-anchor="middle" fill="#FFFFFF">triangle3(40)</text>
</a>
<circle cx="409.900000" cy="314.000000" r="1"/>
<line x1="15.000000" y1="15.000000" x2="15.000000" y2="345.000000"  style="stroke: black; stroke-linecap:round; stroke-width:0.25; stroke-dasharray:3,3;"/>
<line x1="15.000000" y1="345.000000" x2="813.700000" y2="345.000000"  style="stroke: black; stroke-linecap:round; stroke-width:0.25; stroke-dasharray:3,3;"/>
<line x1="813.700000" y1="345.000000" x2="813.700000" y2="15.000000"  style="stroke: black; stroke-linecap:round; stroke-width:0.25; stroke-dasharray:3,3;"/>
<line x1="15.000000" y1="15.000000" x2="20.000000" y2="15.000000"  style="stroke: black; stroke-linecap:round; stroke-width:0.25; stroke-dasharray:3,3;"/>
<line x1="103.850000" y1="15.000000" x2="813.700000" y2="15.000000"  style="stroke: black; stroke-linecap:round; stroke-width:0.25; stroke-dasharray:3,3;"/>
<text x="20.000000" y="17.000000" font-family="Arial" font-size="7">signal_flow_1b(40)(1000)</text>
<line x1="815.700000" y1="151.000000" x2="818.700000" y2="152.000000"  transform="rotate(0.000000,818.700000,152.000000)" style="stroke: black; stroke-width:0.25;"/>
<line x1="815.700000" y1="153.000000" x2="818.700000" y2="152.000000"  transform="rotate(0.000000,818.700000,152.000000)" style="stroke: black; stroke-width:0.25;"/>
<line x1="815.700000" y1="159.000000" x2="818.700000" y2="160.000000"  transform="rotate(0.000000,818.700000,160.000000)" style="stroke: black; stroke-width:0.25;"/>
<line x1="815.700000" y1="161.000000" x2="818.700000" y2="160.000000"  transform="rotate(0.000000,818.700000,160.000000)" style="stroke: black; stroke-width:0.25;"/>
<line x1="815.700000" y1="167.000000" x2="818.700000" y2="168.000000"  transform="rotate(0.000000,818.700000,168.000000)" style="stroke: black; stroke-width:0.25;"/>
<line x1="815.700000" y1="169.000000" x2="818.700000" y2="168.000000"  transform="rotate(0.000000,818.700000,168.000000)" style="stroke: black; stroke-width:0.25;"/>
<line x1="815.700000" y1="175.000000" x2="818.700000" y2="176.000000"  transform="rotate(0.000000,818.700000,176.000000)" style="stroke: black; stroke-width:0.25;"/>
<line x1="815.700000" y1="177.000000" x2="818.700000" y2="176.000000"  transform="rotate(0.000000,818.700000,176.000000)" style="stroke: black; stroke-width:0.25;"/>
<line x1="815.700000" y1="183.000000" x2="818.700000" y2="184.000000"  transform="rotate(0.000000,818.700000,184.000000)" style="stroke: black; stroke-width:0.25;"/>
<line x1="815.700000" y1="185.000000" x2="818.700000" y2="184.000000"  transform="rotate(0.000000,818.700000,184.000000)" style="stroke: black; stroke-width:0.25;"/>
<line x1="815.700000" y1="191.000000" x2="818.700000" y2="192.000000"  transform="rotate(0.000000,818.700000,192.000000)" style="stroke: black; stroke-width:0.25;"/>
<line x1="815.700000" y1="193.000000" x2="818.700000" y2="192.000000"  transform="rotate(0.000000,818.700000,192.000000)" style="stroke: black; stroke-width:0.25;"/>
<line x1="815.700000" y1="199.000000" x2="818.700000" y2="200.000000"  transform="rotate(0.000000,818.700000,200.000000)" style="stroke: black; stroke-width:0.25;"/>
<line x1="815.700000" y1="201.000000" x2="818.700000" y2="200.000000"  transform="rotate(0.000000,818.700000,200.000000)" style="stroke: black; stroke-width:0.25;"/>
<line x1="815.700000" y1="207.000000" x2="818.700000" y2="208.000000"  transform="rotate(0.000000,818.700000,208.000000)" style="stroke: black; stroke-width:0.25;"/>
<line x1="815.700000" y1="209.000000" x2="818.700000" y2="208.000000"  transform="rotate(0.000000,818.700000,208.000000)" style="stroke: black; stroke-width:0.25;"/>
<line x1="10.000000" y1="160.000000" x2="20.000000" y2="160.000000"  style="stroke:black; stroke-linecap:round; stroke-width:0.25;"/>
<line x1="10.000000" y1="168.000000" x2="20.000000" y2="168.000000"  style="stroke:black; stroke-linecap:round; stroke-width:0.25;"/>
<line x1="10.000000" y1="176.000000" x2="20.000000" y2="176.000000"  style="stroke:black; stroke-linecap:round; stroke-width:0.25;"/>
<line x1="10.000000" y1="184.000000" x2="20.000000" y2="184.000000"  style="stroke:black; stroke-linecap:round; stroke-width:0.25;"/>
<line x1="10.000000" y1="192.000000" x2="20.000000" y2="192.000000"  style="stroke:black; stroke-linecap:round; stroke-width:0.25;"/>
<line x1="10.000000" y1="200.000000" x2="20.000000" y2="200.000000"  style="stroke:black; stroke-linecap:round; stroke-width:0.25;"/>
<line x1="20.000000" y1="160.000000" x2="24.000000" y2="160.000000"  style="stroke:black; stroke-linecap:round; stroke-width:0.25;"/>
<line x1="20.000000" y1="168.000000" x2="24.000000" y2="168.000000"  style="stroke:black; stroke-linecap:round; stroke-width:0.25;"/>
<line x1="20.000000" y1="176.000000" x2="24.000000" y2="176.000000"  style="stroke:black; stroke-linecap:round; stroke-width:0.25;"/>
<line x1="20.000000" y1="184.000000" x2="24.000000" y2="184.000000"  style="stroke:black; stroke-linecap:round; stroke-width:0.25;"/>
<line x1="20.000000" y1="192.000000" x2="24.000000" y2="192.000000"  style="stroke:black; stroke-linecap:round; stroke-width:0.25;"/>
<line x1="20.000000" y1="200.000000" x2="24.000000" y2="200.000000"  style="stroke:black; stroke-linecap:round; stroke-width:0.25;"/>
<line x1="24.000000" y1="160.000000" x2="28.000000" y2="160.000000"  style="stroke:black; stroke-linecap:round; stroke-width:0.25;"/>
<line x1="24.000000" y1="168.000000" x2="28.000000" y2="168.000000"  style="stroke:black; stroke-linecap:round; stroke-width:0.25;"/>
<line x1="24.000000" y1="176.000000" x2="28.000000" y2="176.000000"  style="stroke:black; stroke-linecap:round; stroke-width:0.25;"/>
<line x1="24.000000" y1="184.000000" x2="28.000000" y2="184.000000"  style="stroke:black; stroke-linecap:round; stroke-width:0.25;"/>
<line x1="24.000000" y1="192.000000" x2="28.000000" y2="192.000000"  style="stroke:black; stroke-linecap:round; stroke-width:0.25;"/>
<line x1="24.000000" y1="200.000000" x2="28.000000" y2="200.000000"  style="stroke:black; stroke-linecap:round; stroke-width:0.25;"/>
<line x1="28.000000" y1="100.000000" x2="52.000000" y2="100.000000"  style="stroke:black; stroke-linecap:round; stroke-width:0.25;"/>
<line x1="28.000000" y1="160.000000" x2="28.000000" y2="100.000000"  style="stroke:black; stroke-linecap:round; stroke-width:0.25;"/>
<line x1="28.000000" y1="160.000000" x2="28.000000" y2="160.000000"  style="stroke:black; stroke-linecap:round; stroke-width:0.25;"/>
<line x1="28.000000" y1="168.000000" x2="36.000000" y2="168.000000"  style="stroke:black; stroke-linecap:round; stroke-width:0.25;"/>
<line x1="28.000000" y1="176.000000" x2="44.000000" y2="176.000000"  style="stroke:black; stroke-linecap:round; stroke-width:0.25;"/>
<line x1="28.000000" y1="184.000000" x2="52.000000" y2="184.000000"  style="stroke:black; stroke-linecap:round; stroke-width:0.25;"/>
<line x1="28.000000" y1="192.000000" x2="44.000000" y2="192.000000"  style="stroke:black; stroke-linecap:round; stroke-width:0.25;"/>
<line x1="28.000000" y1="200.000000" x2="36.000000" y2="200.000000"  style="stroke:black; stroke-linecap:round; stroke-width:0.25;"/>
<line x1="36.000000" y1="132.000000" x2="52.000000" y2="132.000000"  style="stroke:black; stroke-linecap:round; stroke-width:0.25;"/>
<line x1="36.000000" y1="168.000000" x2="36.000000" y2="132.000000"  style="stroke:black; stroke-linecap:round; stroke-width:0.25;"/>
<line x1="36.000000" y1="200.000000" x2="36.000000" y2="260.000000"  style="stroke:black; stroke-linecap:round; stroke-width:0.25;"/>
<line x1="36.000000" y1="260.000000" x2="52.000000" y2="260.000000"  style="stroke:black; stroke-linecap:round; stroke-width:0.25;"/>
<line x1="44.000000" y1="164.000000" x2="52.000000" y2="164.000000"  style="stroke:black; stroke-linecap:round; stroke-width:0.25;"/>
<line x1="44.000000" y1="176.000000" x2="44.000000" y2="164.000000"  style="stroke:black; stroke-linecap:round; stroke-width:0.25;"/>
<line x1="44.000000" y1="192.000000" x2="44.000000" y2="228.000000"  style="stroke:black; stroke-linecap:round; stroke-width:0.25;"/>
<line x1="44.000000" y1="228.000000" x2="52.000000" y2="228.000000"  style="stroke:black; stroke-linecap:round; stroke-width:0.25;"/>
<line x1="52.000000" y1="100.000000" x2="58.450000" y2="100.000000"  style="stroke:black; stroke-linecap:round; stroke-width:0.25;"/>
<line x1="52.000000" y1="132.000000" x2="58.450000" y2="132.000000"  style="stroke:black; stroke-linecap:round; stroke-width:0.25;"/>
<line x1="52.000000" y1="164.000000" x2="58.450000" y2="164.000000"  style="stroke:black; stroke-linecap:round; stroke-width:0.25;"/>
<line x1="52.000000" y1="184.000000" x2="52.000000" y2="196.000000"  style="stroke:black; stroke-linecap:round; stroke-width:0.25;"/>
<line x1="52.000000" y1="196.000000" x2="52.000000" y2="196.000000"  style="stroke:black; stroke-linecap:round; stroke-width:0.25;"/>
<line x1="52.000000" y1="196.000000" x2="58.450000" y2="196.000000"  style="stroke:black; stroke-linecap:round; stroke-width:0.25;"/>
<line x1="52.000000" y1="228.000000" x2="56.000000" y2="228.000000"  style="stroke:black; stroke-linecap:round; stroke-width:0.25;"/>
<line x1="52.000000" y1="260.000000" x2="58.450000" y2="260.000000"  style="stroke:black; stroke-linecap:round; stroke-width:0.25;"/>
<line x1="58.450000" y1="100.000000" x2="62.450000" y2="100.000000"  style="stroke:black; stroke-linecap:round; stroke-width:0.25;"/>
<line x1="58.450000" y1="132.000000" x2="62.450000" y2="132.000000"  style="stroke:black; stroke-linecap:round; stroke-width:0.25;"/>
<line x1="58.450000" y1="164.000000" x2="64.900000" y2="164.000000"  style="stroke:black; stroke-linecap:round; stroke-width:0.25;"/>
<line x1="58.450000" y1="196.000000" x2="64.900000" y2="196.000000"  style="stroke:black; stroke-linecap:round; stroke-width:0.25;"/>
<line x1="58.450000" y1="260.000000" x2="62.450000" y2="260.000000"  style="stroke:black; stroke-linecap:round; stroke-width:0.25;"/>
<line x1="64.900000" y1="164.000000" x2="68.900000" y2="164.000000"  style="stroke:black; stroke-linecap:round; stroke-width:0.25;"/>
<line x1="64.900000" y1="196.000000" x2="68.900000" y2="196.000000"  style="stroke:black; stroke-linecap:round; stroke-width:0.25;"/>
<line x1="154.300000" y1="100.000000" x2="158.300000" y2="100.000000"  style="stroke:black; stroke-linecap:round; stroke-width:0.25;"/>
<line x1="154.300000" y1="132.000000" x2="158.300000" y2="132.000000"  style="stroke:black; stroke-linecap:round; stroke-width:0.25;"/>
<line x1="158.300000" y1="100.000000" x2="166.300000" y2="100.000000"  style="stroke:black; stroke-linecap:round; stroke-width:0.25;"/>
<line x1="158.300000" y1="120.000000" x2="166.300000" y2="120.000000"  style="stroke:black; stroke-linecap:round; stroke-width:0.25;"/>
<line x1="158.300000" y1="132.000000" x2="158.300000" y2="120.000000"  style="stroke:black; stroke-linecap:round; stroke-width:0.25;"/>
<line x1="158.300000" y1="132.000000" x2="158.300000" y2="132.000000"  style="stroke:black; stroke-linecap:round; stroke-width:0.25;"/>
<line x1="166.300000" y1="100.000000" x2="166.300000" y2="112.000000"  style="stroke:black; stroke-linecap:round; stroke-width:0.25;"/>
<line x1="166.300000" y1="112.000000" x2="166.300000" y2="112.000000"  style="stroke:black; stroke-linecap:round; stroke-width:0.25;"/>
<line x1="166.300000" y1="112.000000" x2="170.300000" y2="112.000000"  style="stroke:black; stroke-linecap:round; stroke-width:0.25;"/>
<line x1="166.300000" y1="120.000000" x2="170.300000" y2="120.000000"  style="stroke:black; stroke-linecap:round; stroke-width:0.25;"/>
<line x1="194.300000" y1="116.000000" x2="198.300000" y2="116.000000"  style="stroke:black; stroke-linecap:round; stroke-width:0.25;"/>
<line x1="198.300000" y1="116.000000" x2="198.300000" y2="116.000000"  style="stroke:black; stroke-linecap:round; stroke-width:0.25;"/>
<line x1="198.300000" y1="116.000000" x2="202.300000" y2="116.000000"  style="stroke:black; stroke-linecap:round; stroke-width:0.25;"/>
<line x1="265.350000" y1="36.000000" x2="269.350000" y2="36.000000"  style="stroke:black; stroke-linecap:round; stroke-width:0.25;"/>
<line x1="265.350000" y1="68.000000" x2="269.350000" y2="68.000000"  style="stroke:black; stroke-linecap:round; stroke-width:0.25;"/>
<line x1="269.350000" y1="36.000000" x2="269.350000" y2="36.000000"  style="stroke:black; stroke-linecap:round; stroke-width:0.25;"/>
<line x1="269.350000" y1="36.000000" x2="273.350000" y2="36.000000"  style="stroke:black; stroke-linecap:round; stroke-width:0.25;"/>
<line x1="269.350000" y1="68.000000" x2="269.350000" y2="68.000000"  style="stroke:black; stroke-linecap:round; stroke-width:0.25;"/>
<line x1="269.350000" y1="68.000000" x2="273.350000" y2="68.000000"  style="stroke:black; stroke-linecap:round; stroke-width:0.25;"/>
<line x1="279.700000" y1="116.000000" x2="283.700000" y2="116.000000"  style="stroke:black; stroke-linecap:round; stroke-width:0.25;"/>
<line x1="283.700000" y1="116.000000" x2="283.700000" y2="116.000000"  style="stroke:black; stroke-linecap:round; stroke-width:0.25;"/>
<line x1="283.700000" y1="116.000000" x2="287.700000" y2="116.000000"  style="stroke:black; stroke-linecap:round; stroke-width:0.25;"/>
<line x1="312.050000" y1="36.000000" x2="316.050000" y2="36.000000"  style="stroke:black; stroke-linecap:round; stroke-width:0.25;"/>
<line x1="312.050000" y1="68.000000" x2="316.050000" y2="68.000000"  style="stroke:black; stroke-linecap:round; stroke-width:0.25;"/>
<line x1="316.050000" y1="36.000000" x2="316.050000" y2="36.000000"  style="stroke:black; stroke-linecap:round; stroke-width:0.25;"/>
<line x1="316.050000" y1="36.000000" x2="320.050000" y2="36.000000"  style="stroke:black; stroke-linecap:round; stroke-width:0.25;"/>
<line x1="316.050000" y1="68.000000" x2="316.050000" y2="68.000000"  style="stroke:black; stroke-linecap:round; stroke-width:0.25;"/>
<line x1="316.050000" y1="68.000000" x2="320.050000" y2="68.000000"  style="stroke:black; stroke-linecap:round; stroke-width:0.25;"/>
<line x1="371.650000" y1="36.000000" x2="375.650000" y2="36.000000"  style="stroke:black; stroke-linecap:round; stroke-width:0.25;"/>
<line x1="371.650000" y1="68.000000" x2="375.650000" y2="68.000000"  style="stroke:black; stroke-linecap:round; stroke-width:0.25;"/>
<line x1="375.650000" y1="36.000000" x2="375.650000" y2="36.000000"  style="stroke:black; stroke-linecap:round; stroke-width:0.25;"/>
<line x1="375.650000" y1="36.000000" x2="379.650000" y2="36.000000"  style="stroke:black; stroke-linecap:round; stroke-width:0.25;"/>
<line x1="375.650000" y1="68.000000" x2="375.650000" y2="68.000000"  style="stroke:black; stroke-linecap:round; stroke-width:0.25;"/>
<line x1="375.650000" y1="68.000000" x2="379.650000" y2="68.000000"  style="stroke:black; stroke-linecap:round; stroke-width:0.25;"/>
<line x1="411.250000" y1="180.000000" x2="415.250000" y2="180.000000"  style="stroke:black; stroke-linecap:round; stroke-width:0.25;"/>
<line x1="415.250000" y1="180.000000" x2="439.250000" y2="164.000000"  style="stroke:black; stroke-linecap:round; stroke-width:0.25;"/>
<line x1="415.250000" y1="180.000000" x2="439.250000" y2="196.000000"  style="stroke:black; stroke-linecap:round; stroke-width:0.25;"/>
<line x1="439.250000" y1="164.000000" x2="443.250000" y2="164.000000"  style="stroke:black; stroke-linecap:round; stroke-width:0.25;"/>
<line x1="439.250000" y1="196.000000" x2="445.700000" y2="196.000000"  style="stroke:black; stroke-linecap:round; stroke-width:0.25;"/>
<line x1="442.500000" y1="116.000000" x2="446.500000" y2="116.000000"  style="stroke:black; stroke-linecap:round; stroke-width:0.25;"/>
<line x1="445.700000" y1="196.000000" x2="449.700000" y2="196.000000"  style="stroke:black; stroke-linecap:round; stroke-width:0.25;"/>
<line x1="445.950000" y1="260.000000" x2="449.950000" y2="260.000000"  style="stroke:black; stroke-linecap:round; stroke-width:0.25;"/>
<line x1="446.500000" y1="116.000000" x2="446.500000" y2="116.000000"  style="stroke:black; stroke-linecap:round; stroke-width:0.25;"/>
<line x1="446.500000" y1="116.000000" x2="450.500000" y2="116.000000"  style="stroke:black; stroke-linecap:round; stroke-width:0.25;"/>
<line x1="449.950000" y1="260.000000" x2="462.850000" y2="260.000000"  style="stroke:black; stroke-linecap:round; stroke-width:0.25;"/>
<line x1="457.050000" y1="36.000000" x2="461.050000" y2="36.000000"  style="stroke:black; stroke-linecap:round; stroke-width:0.25;"/>
<line x1="457.050000" y1="68.000000" x2="461.050000" y2="68.000000"  style="stroke:black; stroke-linecap:round; stroke-width:0.25;"/>
<line x1="458.850000" y1="228.000000" x2="462.850000" y2="228.000000"  style="stroke:black; stroke-linecap:round; stroke-width:0.25;"/>
<line x1="461.050000" y1="36.000000" x2="461.050000" y2="36.000000"  style="stroke:black; stroke-linecap:round; stroke-width:0.25;"/>
<line x1="461.050000" y1="36.000000" x2="465.050000" y2="36.000000"  style="stroke:black; stroke-linecap:round; stroke-width:0.25;"/>
<line x1="461.050000" y1="68.000000" x2="461.050000" y2="68.000000"  style="stroke:black; stroke-linecap:round; stroke-width:0.25;"/>
<line x1="461.050000" y1="68.000000" x2="465.050000" y2="68.000000"  style="stroke:black; stroke-linecap:round; stroke-width:0.25;"/>
<line x1="462.850000" y1="228.000000" x2="470.850000" y2="228.000000"  style="stroke:black; stroke-linecap:round; stroke-width:0.25;"/>
<line x1="462.850000" y1="248.000000" x2="470.850000" y2="248.000000"  style="stroke:black; stroke-linecap:round; stroke-width:0.25;"/>
<line x1="462.850000" y1="260.000000" x2="462.850000" y2="248.000000"  style="stroke:black; stroke-linecap:round; stroke-width:0.25;"/>
<line x1="462.850000" y1="260.000000" x2="462.850000" y2="260.000000"  style="stroke:black; stroke-linecap:round; stroke-width:0.25;"/>
<line x1="470.850000" y1="228.000000" x2="470.850000" y2="240.000000"  style="stroke:black; stroke-linecap:round; stroke-width:0.25;"/>
<line x1="470.850000" y1="240.000000" x2="470.850000" y2="240.000000"  style="stroke:black; stroke-linecap:round; stroke-width:0.25;"/>
<line x1="470.850000" y1="240.000000" x2="474.850000" y2="240.000000"  style="stroke:black; stroke-linecap:round; stroke-width:0.25;"/>
<line x1="470.850000" y1="248.000000" x2="474.850000" y2="248.000000"  style="stroke:black; stroke-linecap:round; stroke-width:0.25;"/>
<line x1="472.400000" y1="324.000000" x2="476.400000" y2="324.000000"  style="stroke:black; stroke-linecap:round; stroke-width:0.25;"/>
<line x1="476.400000" y1="324.000000" x2="482.850000" y2="324.000000"  style="stroke:black; stroke-linecap:round; stroke-width:0.25;"/>
<line x1="478.850000" y1="292.000000" x2="482.850000" y2="292.000000"  style="stroke:black; stroke-linecap:round; stroke-width:0.25;"/>
<line x1="482.850000" y1="292.000000" x2="502.850000" y2="292.000000"  style="stroke:black; stroke-linecap:round; stroke-width:0.25;"/>
<line x1="482.850000" y1="324.000000" x2="502.850000" y2="324.000000"  style="stroke:black; stroke-linecap:round; stroke-width:0.25;"/>
<line x1="498.850000" y1="244.000000" x2="502.850000" y2="244.000000"  style="stroke:black; stroke-linecap:round; stroke-width:0.25;"/>
<line x1="502.850000" y1="244.000000" x2="537.550000" y2="244.000000"  style="stroke:black; stroke-linecap:round; stroke-width:0.25;"/>
<line x1="502.850000" y1="292.000000" x2="537.550000" y2="292.000000"  style="stroke:black; stroke-linecap:round; stroke-width:0.25;"/>
<line x1="502.850000" y1="324.000000" x2="537.550000" y2="324.000000"  style="stroke:black; stroke-linecap:round; stroke-width:0.25;"/>
<line x1="527.100000" y1="196.000000" x2="531.100000" y2="196.000000"  style="stroke:black; stroke-linecap:round; stroke-width:0.25;"/>
<line x1="527.900000" y1="116.000000" x2="531.900000" y2="116.000000"  style="stroke:black; stroke-linecap:round; stroke-width:0.25;"/>
<line x1="531.100000" y1="196.000000" x2="537.550000" y2="196.000000"  style="stroke:black; stroke-linecap:round; stroke-width:0.25;"/>
<line x1="531.900000" y1="116.000000" x2="557.900000" y2="100.000000"  style="stroke:black; stroke-linecap:round; stroke-width:0.25;"/>
<line x1="531.900000" y1="116.000000" x2="557.900000" y2="120.000000"  style="stroke:black; stroke-linecap:round; stroke-width:0.25;"/>
<line x1="533.550000" y1="164.000000" x2="537.550000" y2="164.000000"  style="stroke:black; stroke-linecap:round; stroke-width:0.25;"/>
<line x1="537.550000" y1="164.000000" x2="768.700000" y2="164.000000"  style="stroke:black; stroke-linecap:round; stroke-width:0.25;"/>
<line x1="537.550000" y1="196.000000" x2="768.700000" y2="196.000000"  style="stroke:black; stroke-linecap:round; stroke-width:0.25;"/>
<line x1="537.550000" y1="244.000000" x2="768.700000" y2="244.000000"  style="stroke:black; stroke-linecap:round; stroke-width:0.25;"/>
<line x1="537.550000" y1="292.000000" x2="768.700000" y2="292.000000"  style="stroke:black; stroke-linecap:round; stroke-width:0.25;"/>
<line x1="537.550000" y1="324.000000" x2="768.700000" y2="324.000000"  style="stroke:black; stroke-linecap:round; stroke-width:0.25;"/>
<line x1="555.350000" y1="36.000000" x2="559.350000" y2="36.000000"  style="stroke:black; stroke-linecap:round; stroke-width:0.25;"/>
<line x1="555.350000" y1="68.000000" x2="559.350000" y2="68.000000"  style="stroke:black; stroke-linecap:round; stroke-width:0.25;"/>
<line x1="557.900000" y1="100.000000" x2="600.600000" y2="100.000000"  style="stroke:black; stroke-linecap:round; stroke-width:0.25;"/>
<line x1="557.900000" y1="120.000000" x2="561.900000" y2="120.000000"  style="stroke:black; stroke-linecap:round; stroke-width:0.25;"/>
<line x1="559.350000" y1="36.000000" x2="559.350000" y2="36.000000"  style="stroke:black; stroke-linecap:round; stroke-width:0.25;"/>
<line x1="559.350000" y1="36.000000" x2="563.350000" y2="36.000000"  style="stroke:black; stroke-linecap:round; stroke-width:0.25;"/>
<line x1="559.350000" y1="68.000000" x2="559.350000" y2="68.000000"  style="stroke:black; stroke-linecap:round; stroke-width:0.25;"/>
<line x1="559.350000" y1="68.000000" x2="563.350000" y2="68.000000"  style="stroke:black; stroke-linecap:round; stroke-width:0.25;"/>
<line x1="600.600000" y1="100.000000" x2="643.300000" y2="100.000000"  style="stroke:black; stroke-linecap:round; stroke-width:0.25;"/>
<line x1="639.300000" y1="120.000000" x2="643.300000" y2="120.000000"  style="stroke:black; stroke-linecap:round; stroke-width:0.25;"/>
<line x1="640.750000" y1="36.000000" x2="644.750000" y2="36.000000"  style="stroke:black; stroke-linecap:round; stroke-width:0.25;"/>
<line x1="640.750000" y1="68.000000" x2="644.750000" y2="68.000000"  style="stroke:black; stroke-linecap:round; stroke-width:0.25;"/>
<line x1="643.300000" y1="120.000000" x2="651.300000" y2="120.000000"  style="stroke:black; stroke-linecap:round; stroke-width:0.25;"/>
<line x1="643.300000" y1="100.000000" x2="651.300000" y2="100.000000"  style="stroke:black; stroke-linecap:round; stroke-width:0.25;"/>
<line x1="644.750000" y1="36.000000" x2="768.700000" y2="36.000000"  style="stroke:black; stroke-linecap:round; stroke-width:0.25;"/>
<line x1="644.750000" y1="68.000000" x2="768.700000" y2="68.000000"  style="stroke:black; stroke-linecap:round; stroke-width:0.25;"/>
<line x1="651.300000" y1="112.000000" x2="655.300000" y2="112.000000"  style="stroke:black; stroke-linecap:round; stroke-width:0.25;"/>
<line x1="651.300000" y1="120.000000" x2="655.300000" y2="120.000000"  style="stroke:black; stroke-linecap:round; stroke-width:0.25;"/>
<line x1="651.300000" y1="100.000000" x2="651.300000" y2="112.000000"  style="stroke:black; stroke-linecap:round; stroke-width:0.25;"/>
<line x1="651.300000" y1="112.000000" x2="651.300000" y2="112.000000"  style="stroke:black; stroke-linecap:round; stroke-width:0.25;"/>
<line x1="679.300000" y1="116.000000" x2="683.300000" y2="116.000000"  style="stroke:black; stroke-linecap:round; stroke-width:0.25;"/>
<line x1="683.300000" y1="116.000000" x2="683.300000" y2="116.000000"  style="stroke:black; stroke-linecap:round; stroke-width:0.25;"/>
<line x1="683.300000" y1="116.000000" x2="687.300000" y2="116.000000"  style="stroke:black; stroke-linecap:round; stroke-width:0.25;"/>
<line x1="764.700000" y1="116.000000" x2="768.700000" y2="116.000000"  style="stroke:black; stroke-linecap:round; stroke-width:0.25;"/>
<line x1="768.700000" y1="36.000000" x2="800.700000" y2="36.000000"  style="stroke:black; stroke-linecap:round; stroke-width:0.25;"/>
<line x1="768.700000" y1="68.000000" x2="792.700000" y2="68.000000"  style="stroke:black; stroke-linecap:round; stroke-width:0.25;"/>
<line x1="768.700000" y1="116.000000" x2="784.700000" y2="116.000000"  style="stroke:black; stroke-linecap:round; stroke-width:0.25;"/>
<line x1="768.700000" y1="164.000000" x2="776.700000" y2="164.000000"  style="stroke:black; stroke-linecap:round; stroke-width:0.25;"/>
<line x1="768.700000" y1="184.000000" x2="800.700000" y2="184.000000"  style="stroke:black; stroke-linecap:round; stroke-width:0.25;"/>
<line x1="768.700000" y1="196.000000" x2="768.700000" y2="184.000000"  style="stroke:black; stroke-linecap:round; stroke-width:0.25;"/>
<line x1="768.700000" y1="196.000000" x2="768.700000" y2="196.000000"  style="stroke:black; stroke-linecap:round; stroke-width:0.25;"/>
<line x1="768.700000" y1="244.000000" x2="776.700000" y2="244.000000"  style="stroke:black; stroke-linecap:round; stroke-width:0.25;"/>
<line x1="768.700000" y1="292.000000" x2="784.700000" y2="292.000000"  style="stroke:black; stroke-linecap:round; stroke-width:0.25;"/>
<line x1="768.700000" y1="324.000000" x2="792.700000" y2="324.000000"  style="stroke:black; stroke-linecap:round; stroke-width:0.25;"/>
<line x1="776.700000" y1="164.000000" x2="776.700000" y2="176.000000"  style="stroke:black; stroke-linecap:round; stroke-width:0.25;"/>
<line x1="776.700000" y1="176.000000" x2="800.700000" y2="176.000000"  style="stroke:black; stroke-linecap:round; stroke-width:0.25;"/>
<line x1="776.700000" y1="192.000000" x2="800.700000" y2="192.000000"  style="stroke:black; stroke-linecap:round; stroke-width:0.25;"/>
<line x1="776.700000" y1="244.000000" x2="776.700000" y2="192.000000"  style="stroke:black; stroke-linecap:round; stroke-width:0.25;"/>
<line x1="784.700000" y1="116.000000" x2="784.700000" y2="168.000000"  style="stroke:black; stroke-linecap:round; stroke-width:0.25;"/>
<line x1="784.700000" y1="168.000000" x2="800.700000" y2="168.000000"  style="stroke:black; stroke-linecap:round; stroke-width:0.25;"/>
<line x1="784.700000" y1="200.000000" x2="800.700000" y2="200.000000"  style="stroke:black; stroke-linecap:round; stroke-width:0.25;"/>
<line x1="784.700000" y1="292.000000" x2="784.700000" y2="200.000000"  style="stroke:black; stroke-linecap:round; stroke-width:0.25;"/>
<line x1="792.700000" y1="68.000000" x2="792.700000" y2="160.000000"  style="stroke:black; stroke-linecap:round; stroke-width:0.25;"/>
<line x1="792.700000" y1="160.000000" x2="800.700000" y2="160.000000"  style="stroke:black; stroke-linecap:round; stroke-width:0.25;"/>
<line x1="792.700000" y1="208.000000" x2="800.700000" y2="208.000000"  style="stroke:black; stroke-linecap:round; stroke-width:0.25;"/>
<line x1="792.700000" y1="324.000000" x2="792.700000" y2="208.000000"  style="stroke:black; stroke-linecap:round; stroke-width:0.25;"/>
<line x1="800.700000" y1="36.000000" x2="800.700000" y2="152.000000"  style="stroke:black; stroke-linecap:round; stroke-width:0.25;"/>
<line x1="800.700000" y1="152.000000" x2="800.700000" y2="152.000000"  style="stroke:black; stroke-linecap:round; stroke-width:0.25;"/>
<line x1="800.700000" y1="152.000000" x2="804.700000" y2="152.000000"  style="stroke:black; stroke-linecap:round; stroke-width:0.25;"/>
<line x1="800.700000" y1="160.000000" x2="804.700000" y2="160.000000"  style="stroke:black; stroke-linecap:round; stroke-width:0.25;"/>
<line x1="800.700000" y1="168.000000" x2="804.700000" y2="168.000000"  style="stroke:black; stroke-linecap:round; stroke-width:0.25;"/>
<line x1="800.700000" y1="176.000000" x2="804.700000" y2="176.000000"  style="stroke:black; stroke-linecap:round; stroke-width:0.25;"/>
<line x1="800.700000" y1="184.000000" x2="804.700000" y2="184.000000"  style="stroke:black; stroke-linecap:round; stroke-width:0.25;"/>
<line x1="800.700000" y1="192.000000" x2="804.700000" y2="192.000000"  style="stroke:black; stroke-linecap:round; stroke-width:0.25;"/>
<line x1="800.700000" y1="200.000000" x2="804.700000" y2="200.000000"  style="stroke:black; stroke-linecap:round; stroke-width:0.25;"/>
<line x1="800.700000" y1="208.000000" x2="804.700000" y2="208.000000"  style="stroke:black; stroke-linecap:round; stroke-width:0.25;"/>
<line x1="804.700000" y1="152.000000" x2="808.700000" y2="152.000000"  style="stroke:black; stroke-linecap:round; stroke-width:0.25;"/>
<line x1="804.700000" y1="160.000000" x2="808.700000" y2="160.000000"  style="stroke:black; stroke-linecap:round; stroke-width:0.25;"/>
<line x1="804.700000" y1="168.000000" x2="808.700000" y2="168.000000"  style="stroke:black; stroke-linecap:round; stroke-width:0.25;"/>
<line x1="804.700000" y1="176.000000" x2="808.700000" y2="176.000000"  style="stroke:black; stroke-linecap:round; stroke-width:0.25;"/>
<line x1="804.700000" y1="184.000000" x2="808.700000" y2="184.000000"  style="stroke:black; stroke-linecap:round; stroke-width:0.25;"/>
<line x1="804.700000" y1="192.000000" x2="808.700000" y2="192.000000"  style="stroke:black; stroke-linecap:round; stroke-width:0.25;"/>
<line x1="804.700000" y1="200.000000" x2="808.700000" y2="200.000000"  style="stroke:black; stroke-linecap:round; stroke-width:0.25;"/>
<line x1="804.700000" y1="208.000000" x2="808.700000" y2="208.000000"  style="stroke:black; stroke-linecap:round; stroke-width:0.25;"/>
<line x1="808.700000" y1="152.000000" x2="818.700000" y2="152.000000"  style="stroke:black; stroke-linecap:round; stroke-width:0.25;"/>
<line x1="808.700000" y1="160.000000" x2="818.700000" y2="160.000000"  style="stroke:black; stroke-linecap:round; stroke-width:0.25;"/>
<line x1="808.700000" y1="168.000000" x2="818.700000" y2="168.000000"  style="stroke:black; stroke-linecap:round; stroke-width:0.25;"/>
<line x1="808.700000" y1="176.000000" x2="818.700000" y2="176.000000"  style="stroke:black; stroke-linecap:round; stroke-width:0.25;"/>
<line x1="808.700000" y1="184.000000" x2="818.700000" y2="184.000000"  style="stroke:black; stroke-linecap:round; stroke-width:0.25;"/>
<line x1="808.700000" y1="192.000000" x2="818.700000" y2="192.000000"  style="stroke:black; stroke-linecap:round; stroke-width:0.25;"/>
<line x1="808.700000" y1="200.000000" x2="818.700000" y2="200.000000"  style="stroke:black; stroke-linecap:round; stroke-width:0.25;"/>
<line x1="808.700000" y1="208.000000" x2="818.700000" y2="208.000000"  style="stroke:black; stroke-linecap:round; stroke-width:0.25;"/>
</svg>
