\relax 
\gdef \LT@i {\LT@entry 
    {1}{53.27179pt}\LT@entry 
    {1}{97.75826pt}\LT@entry 
    {1}{97.75826pt}\LT@entry 
    {1}{97.75826pt}\LT@entry 
    {1}{97.75826pt}\LT@entry 
    {1}{97.75826pt}\LT@entry 
    {1}{97.75826pt}}
\gdef \@abspage@last{2}
