\relax 
\providecommand\hyper@newdestlabel[2]{}
\providecommand\babel@aux[2]{}
\@nameuse{bbl@beforestart}
\providecommand\HyperFirstAtBeginDocument{\AtBeginDocument}
\HyperFirstAtBeginDocument{\ifx\hyper@anchor\@undefined
\global\let\oldcontentsline\contentsline
\gdef\contentsline#1#2#3#4{\oldcontentsline{#1}{#2}{#3}}
\global\let\oldnewlabel\newlabel
\gdef\newlabel#1#2{\newlabelxx{#1}#2}
\gdef\newlabelxx#1#2#3#4#5#6{\oldnewlabel{#1}{{#2}{#3}}}
\AtEndDocument{\ifx\hyper@anchor\@undefined
\let\contentsline\oldcontentsline
\let\newlabel\oldnewlabel
\fi}
\fi}
\global\let\hyper@last\relax 
\gdef\HyperFirstAtBeginDocument#1{#1}
\providecommand\HyField@AuxAddToFields[1]{}
\providecommand\HyField@AuxAddToCoFields[2]{}
\babel@aux{italian}{}
\babel@aux{italian}{}
\@writefile{toc}{\contentsline {section}{\numberline {I} Introduzione}{4}{section.1}\protected@file@percent }
\@writefile{lof}{\contentsline {figure}{\numberline {1}{\ignorespaces L'Electronic Music Studio a Putney con le indicazioni degli apparecchi collezionati da Peter Zinovieff\relax }}{4}{figure.1}\protected@file@percent }
\@writefile{toc}{\contentsline {subsection}{\numberline {I}I sistemi di sintesi digitale del suono}{4}{subsection.1.1}\protected@file@percent }
\@writefile{toc}{\contentsline {subsection}{\numberline {II}Il CRM}{4}{subsection.1.2}\protected@file@percent }
\@writefile{toc}{\contentsline {subsection}{\numberline {III}Il Fly 10}{4}{subsection.1.3}\protected@file@percent }
\@writefile{toc}{\contentsline {subsection}{\numberline {IV}Il Fly 30}{4}{subsection.1.4}\protected@file@percent }
\@writefile{toc}{\contentsline {subsection}{\numberline {V}\textit  {Mobile Locale} di Michelangelo Lupone}{6}{subsection.1.5}\protected@file@percent }
\@writefile{toc}{\contentsline {subsubsection}{\numberline {V.1}L'autore}{6}{subsubsection.1.5.1}\protected@file@percent }
\@writefile{toc}{\contentsline {subsubsection}{\numberline {V.2}Il brano}{6}{subsubsection.1.5.2}\protected@file@percent }
\@writefile{lof}{\contentsline {figure}{\numberline {2}{\ignorespaces  Programma di sala della prima esecuzione del brano al Conservatorio di musica "G. Rossini" di Pesaro\relax }}{7}{figure.2}\protected@file@percent }
\@writefile{toc}{\contentsline {section}{\numberline {II} Le funzionalità del Fly 30}{8}{section.2}\protected@file@percent }
\@writefile{lof}{\contentsline {figure}{\numberline {3}{\ignorespaces Il VCS3\relax }}{8}{figure.3}\protected@file@percent }
\@writefile{toc}{\contentsline {subsection}{\numberline {I}Le sorgenti}{8}{subsection.2.1}\protected@file@percent }
\@writefile{lof}{\contentsline {figure}{\numberline {4}{\ignorespaces Tabella riassuntiva delle caratteristiche degli oscillatori.\relax }}{8}{figure.4}\protected@file@percent }
\newlabel{tab:Oscillatori}{{4}{8}{Tabella riassuntiva delle caratteristiche degli oscillatori.\relax }{figure.4}{}}
\@writefile{toc}{\contentsline {subsection}{\numberline {II}Il filtro e gli effetti}{9}{subsection.2.2}\protected@file@percent }
\@writefile{toc}{\contentsline {subsubsection}{\numberline {II.1}Il filtro}{9}{subsubsection.2.2.1}\protected@file@percent }
\@writefile{lof}{\contentsline {figure}{\numberline {5}{\ignorespaces Il pannello principale del VCS3\relax }}{9}{figure.5}\protected@file@percent }
\@writefile{toc}{\contentsline {subsubsection}{\numberline {II.2}Gli inviluppi}{9}{subsubsection.2.2.2}\protected@file@percent }
\@writefile{toc}{\contentsline {subsubsection}{\numberline {II.3}Il riverbero}{10}{subsubsection.2.2.3}\protected@file@percent }
\@writefile{lof}{\contentsline {figure}{\numberline {6}{\ignorespaces Il riverbero a molla del VCS3\relax }}{10}{figure.6}\protected@file@percent }
\@writefile{toc}{\contentsline {subsection}{\numberline {III}Il \textit  {meter}}{10}{subsection.2.3}\protected@file@percent }
\@writefile{toc}{\contentsline {subsection}{\numberline {IV}Il pannello inferiore}{10}{subsection.2.4}\protected@file@percent }
\@writefile{lof}{\contentsline {figure}{\numberline {7}{\ignorespaces Il pannello inferiore del VCS3\relax }}{10}{figure.7}\protected@file@percent }
\@writefile{toc}{\contentsline {subsection}{\numberline {V}Il posteriore}{11}{subsection.2.5}\protected@file@percent }
\@writefile{lof}{\contentsline {figure}{\numberline {8}{\ignorespaces Il pannello posteriore del VCS3\relax }}{11}{figure.8}\protected@file@percent }
\@writefile{toc}{\contentsline {section}{\numberline {III} Il \textit  {porting} del Fly 30 in FAUST}{12}{section.3}\protected@file@percent }
\@writefile{toc}{\contentsline {subsection}{\numberline {I}FAUST e \textit  {SEAM}}{12}{subsection.3.1}\protected@file@percent }
\@writefile{toc}{\contentsline {subsection}{\numberline {II}Realizzazione della matrice in FAUST}{12}{subsection.3.2}\protected@file@percent }
\@writefile{toc}{\contentsline {subsubsection}{\numberline {II.1}Il \texttt  {checkbox}}{12}{subsubsection.3.2.1}\protected@file@percent }
\@writefile{toc}{\contentsline {subsubsection}{\numberline {II.2}Il \texttt  {par}}{13}{subsubsection.3.2.2}\protected@file@percent }
\@writefile{toc}{\contentsline {subsubsection}{\numberline {II.3}La matrice del VCS3 in FAUST}{13}{subsubsection.3.2.3}\protected@file@percent }
\@writefile{toc}{\contentsline {section}{\numberline {IV} Perchè il Fly 30}{14}{section.4}\protected@file@percent }
\@writefile{toc}{\contentsline {subsection}{\numberline {I}L'importanza di una matrice all'interno di un sintetizzatore}{14}{subsection.4.1}\protected@file@percent }
\@writefile{toc}{\contentsline {subsection}{\numberline {II}La matrice del VCS3}{14}{subsection.4.2}\protected@file@percent }
\@writefile{lof}{\contentsline {figure}{\numberline {9}{\ignorespaces La matrice in cartone del VCS3 realizzata in fase di progettazione da Tristram Cary\relax }}{14}{figure.9}\protected@file@percent }
\@writefile{lof}{\contentsline {figure}{\numberline {10}{\ignorespaces Esempio di patch realizzata sulla matrice del VCS3\relax }}{15}{figure.10}\protected@file@percent }
\@writefile{toc}{\contentsline {subsection}{\numberline {III}Le possibilità di espansione di una matrice}{16}{subsection.4.3}\protected@file@percent }
\@writefile{lof}{\contentsline {figure}{\numberline {11}{\ignorespaces La matrice originale del VCS3 Mk I\relax }}{16}{figure.11}\protected@file@percent }
\@writefile{lof}{\contentsline {figure}{\numberline {12}{\ignorespaces Il Synthi Vocoder 100 per la WDR con la matrice per il banco di filtri sulla destra\relax }}{17}{figure.12}\protected@file@percent }
\@writefile{toc}{\contentsline {subsection}{\numberline {IV}Come approciarsi alla realizzazione di \textit  {patches}}{17}{subsection.4.4}\protected@file@percent }
\@writefile{lof}{\contentsline {figure}{\numberline {13}{\ignorespaces Scheda bianca per appuntare \textit  {patches} fornito insieme al manuale\relax }}{18}{figure.13}\protected@file@percent }
\@writefile{toc}{\contentsline {subsection}{\numberline {V}Il VCS3 ed \textit  {Incontro}}{19}{subsection.4.5}\protected@file@percent }
\@writefile{lof}{\contentsline {figure}{\numberline {14}{\ignorespaces Scheda con appunti di una \textit  {patch} del brano \textit  {Incontro} di Giorgio Nottoli\relax }}{19}{figure.14}\protected@file@percent }
\@writefile{lof}{\contentsline {figure}{\numberline {15}{\ignorespaces Patch e relativa maschera con i fori realizzata da Giorgio Nottoli per il brano\relax }}{20}{figure.15}\protected@file@percent }
\@writefile{toc}{\contentsline {section}{\numberline {V} Conclusioni}{21}{section.5}\protected@file@percent }
\@writefile{toc}{\contentsline {section}{\numberline {VI}Strumenti per la comprensione del Fly 30}{22}{section.6}\protected@file@percent }
\@writefile{toc}{\contentsline {subsection}{\numberline {I}Tabella riassuntiva delle caratteristiche dell'EMS VCS3}{22}{subsection.6.1}\protected@file@percent }
\@writefile{lof}{\contentsline {figure}{\numberline {16}{\ignorespaces Tabella riassuntiva delle caratteristiche dell'EMS VCS3\relax }}{22}{figure.16}\protected@file@percent }
\@writefile{toc}{\contentsline {subsection}{\numberline {II}Rappresentazione della matrice del VCS3}{23}{subsection.6.2}\protected@file@percent }
\@writefile{lof}{\contentsline {figure}{\numberline {17}{\ignorespaces Rappresentazione della matrice del VCS3\relax }}{23}{figure.caption.1}\protected@file@percent }
\@writefile{toc}{\contentsline {subsection}{\numberline {III}Schemi descrittivi del Fly 30 e delle sue caratteristiche}{24}{subsection.6.3}\protected@file@percent }
\@writefile{lof}{\contentsline {figure}{\numberline {18}{\ignorespaces Le funzionalità del Digital Signal Patcher del Fly 30\relax }}{24}{figure.18}\protected@file@percent }
\@writefile{toc}{\contentsline {section}{\numberline {VII} Bibliografia, filmografia \& sitografia}{24}{section.7}\protected@file@percent }
\@writefile{toc}{\contentsline {section}{Elenco delle figure e delle tabelle}{26}{Item.27}\protected@file@percent }
\gdef \@abspage@last{27}
