$ 1 0.000005 10.20027730826997 50 5 50 5e-11
156 80 224 128 224 0 5
156 208 224 240 224 0 5
156 336 224 368 224 0 0
156 464 224 480 224 0 0
w 176 224 176 256 0
w 176 256 208 256 0
w 304 224 304 256 0
w 304 256 336 256 0
w 432 224 432 256 0
w 432 256 464 256 0
w 464 224 448 224 0
w 448 224 448 288 0
w 448 288 464 288 0
w 448 288 448 336 0
w 448 336 320 336 0
w 320 336 320 288 0
w 320 288 336 288 0
w 320 288 320 224 0
w 320 224 336 224 0
w 208 224 192 224 0
w 192 224 192 288 0
w 192 288 208 288 0
w 192 288 192 336 0
w 192 336 320 336 0
w 80 224 64 224 0
w 64 224 64 288 0
w 64 288 80 288 0
w 64 288 64 336 0
w 64 336 192 336 0
R 80 256 32 256 1 2 200 2.5 2.5 0 0.5
R 64 336 32 336 0 0 40 5 0 0 0.5
w 560 224 560 64 0
w 432 224 432 96 0
w 304 224 304 128 0
w 176 224 176 160 0
M 560 64 592 64 2 2.5
M 432 96 592 96 2 2.5
M 304 128 592 128 2 2.5
M 176 160 592 160 2 2.5
197 656 96 704 96 0
w 560 64 656 96 0
w 432 96 656 128 0
w 304 128 656 160 0
w 176 160 656 192 0
157 880 96 944 96 0 7 0 0
w 784 96 880 96 0
w 784 128 880 128 0
w 784 160 880 160 0
w 784 192 880 192 0
w 784 224 944 224 0
w 784 256 976 224 0
w 784 288 1008 224 0
o 35 64 0 4102 5 0.00009765625 0 1
o 36 64 0 4102 5 0.00009765625 0 1
o 37 64 0 4102 5 0.00009765625 0 1
o 38 64 0 4102 5 0.00009765625 0 1
