$ 1 0.000005 10.20027730826997 50 5 43 5e-11
153 176 128 384 128 0 2 5 5
153 176 272 384 272 0 2 5 5
153 480 144 656 144 0 2 0 5
153 480 240 672 240 0 2 0 5
w 384 128 480 128 0
w 384 272 480 256 0
w 176 144 176 192 0
w 176 256 176 192 0
L 176 112 112 112 0 0 false 5 0
L 176 288 112 288 0 0 false 5 0
M 656 144 736 144 0 2.5
M 672 240 736 240 0 2.5
w 656 144 480 224 0
w 672 240 480 160 0
x -7 71 73 74 4 24 RESET
x -3 335 43 338 4 24 SET
x -65 198 29 201 4 24 ENABLE
R 176 192 48 192 1 2 30 2.5 2.5 0 0.5
