<?xml version="1.0"?>
<svg xmlns="http://www.w3.org/2000/svg" xmlns:xlink="http://www.w3.org/1999/xlink" viewBox="0 0 321.900000 144.000000" width="160.950000mm" height="72.000000mm" version="1.1">
<a xlink:href="allpasses-0x7fa4d08f8670.svg">
<rect x="1.000000" y="1.000000" width="320.900000" height="143.000000" rx="0" ry="0" style="stroke:none;fill:#cccccc;"/>
<rect x="0.000000" y="0.000000" width="320.900000" height="143.000000" rx="0" ry="0" style="stroke:none;fill:#ffffff;"/>
</a>
<text x="10.000000" y="7.000000" font-family="Arial" font-size="7"></text>
<rect x="127.050000" y="33.000000" width="25.800000" height="24.000000" rx="0" ry="0" style="stroke:none;fill:#cccccc;"/>
<rect x="126.050000" y="32.000000" width="25.800000" height="24.000000" rx="0" ry="0" style="stroke:none;fill:#f44800;"/>
<text x="138.950000" y="46.000000" font-family="Arial" font-size="7" text-anchor="middle" fill="#FFFFFF">-0.9</text>
<circle cx="128.050000" cy="34.000000" r="1"/>
<rect x="168.850000" y="29.000000" width="24.000000" height="24.000000" rx="0" ry="0" style="stroke:none;fill:#cccccc;"/>
<rect x="167.850000" y="28.000000" width="24.000000" height="24.000000" rx="0" ry="0" style="stroke:none;fill:#4B71A1;"/>
<text x="179.850000" y="42.000000" font-family="Arial" font-size="7" text-anchor="middle" fill="#FFFFFF">*</text>
<circle cx="169.850000" cy="30.000000" r="1"/>
<line x1="164.850000" y1="35.000000" x2="167.850000" y2="36.000000"  transform="rotate(0.000000,167.850000,36.000000)" style="stroke: black; stroke-width:0.25;"/>
<line x1="164.850000" y1="37.000000" x2="167.850000" y2="36.000000"  transform="rotate(0.000000,167.850000,36.000000)" style="stroke: black; stroke-width:0.25;"/>
<line x1="164.850000" y1="43.000000" x2="167.850000" y2="44.000000"  transform="rotate(0.000000,167.850000,44.000000)" style="stroke: black; stroke-width:0.25;"/>
<line x1="164.850000" y1="45.000000" x2="167.850000" y2="44.000000"  transform="rotate(0.000000,167.850000,44.000000)" style="stroke: black; stroke-width:0.25;"/>
<a xlink:href="fb-0x7fa4d08eaa20.svg">
<rect x="69.000000" y="65.000000" width="141.900000" height="24.000000" rx="0" ry="0" style="stroke:none;fill:#cccccc;"/>
<rect x="68.000000" y="64.000000" width="141.900000" height="24.000000" rx="0" ry="0" style="stroke:none;fill:#003366;"/>
</a>
<a xlink:href="fb-0x7fa4d08eaa20.svg">
<text x="138.950000" y="78.000000" font-family="Arial" font-size="7" text-anchor="middle" fill="#FFFFFF">fb_comb(19)(0.90000000000000002f)</text>
</a>
<circle cx="70.000000" cy="66.000000" r="1"/>
<line x1="65.000000" y1="75.000000" x2="68.000000" y2="76.000000"  transform="rotate(0.000000,68.000000,76.000000)" style="stroke: black; stroke-width:0.25;"/>
<line x1="65.000000" y1="77.000000" x2="68.000000" y2="76.000000"  transform="rotate(0.000000,68.000000,76.000000)" style="stroke: black; stroke-width:0.25;"/>
<rect x="127.050000" y="97.000000" width="25.800000" height="24.000000" rx="0" ry="0" style="stroke:none;fill:#cccccc;"/>
<rect x="126.050000" y="96.000000" width="25.800000" height="24.000000" rx="0" ry="0" style="stroke:none;fill:#f44800;"/>
<text x="138.950000" y="110.000000" font-family="Arial" font-size="7" text-anchor="middle" fill="#FFFFFF">0.19</text>
<circle cx="128.050000" cy="98.000000" r="1"/>
<rect x="226.900000" y="81.000000" width="24.000000" height="24.000000" rx="0" ry="0" style="stroke:none;fill:#cccccc;"/>
<rect x="225.900000" y="80.000000" width="24.000000" height="24.000000" rx="0" ry="0" style="stroke:none;fill:#4B71A1;"/>
<text x="237.900000" y="94.000000" font-family="Arial" font-size="7" text-anchor="middle" fill="#FFFFFF">*</text>
<circle cx="227.900000" cy="82.000000" r="1"/>
<line x1="222.900000" y1="87.000000" x2="225.900000" y2="88.000000"  transform="rotate(0.000000,225.900000,88.000000)" style="stroke: black; stroke-width:0.25;"/>
<line x1="222.900000" y1="89.000000" x2="225.900000" y2="88.000000"  transform="rotate(0.000000,225.900000,88.000000)" style="stroke: black; stroke-width:0.25;"/>
<line x1="222.900000" y1="95.000000" x2="225.900000" y2="96.000000"  transform="rotate(0.000000,225.900000,96.000000)" style="stroke: black; stroke-width:0.25;"/>
<line x1="222.900000" y1="97.000000" x2="225.900000" y2="96.000000"  transform="rotate(0.000000,225.900000,96.000000)" style="stroke: black; stroke-width:0.25;"/>
<rect x="266.900000" y="61.000000" width="24.000000" height="24.000000" rx="0" ry="0" style="stroke:none;fill:#cccccc;"/>
<rect x="265.900000" y="60.000000" width="24.000000" height="24.000000" rx="0" ry="0" style="stroke:none;fill:#4B71A1;"/>
<text x="277.900000" y="74.000000" font-family="Arial" font-size="7" text-anchor="middle" fill="#FFFFFF">+</text>
<circle cx="267.900000" cy="62.000000" r="1"/>
<line x1="262.900000" y1="67.000000" x2="265.900000" y2="68.000000"  transform="rotate(0.000000,265.900000,68.000000)" style="stroke: black; stroke-width:0.25;"/>
<line x1="262.900000" y1="69.000000" x2="265.900000" y2="68.000000"  transform="rotate(0.000000,265.900000,68.000000)" style="stroke: black; stroke-width:0.25;"/>
<line x1="262.900000" y1="75.000000" x2="265.900000" y2="76.000000"  transform="rotate(0.000000,265.900000,76.000000)" style="stroke: black; stroke-width:0.25;"/>
<line x1="262.900000" y1="77.000000" x2="265.900000" y2="76.000000"  transform="rotate(0.000000,265.900000,76.000000)" style="stroke: black; stroke-width:0.25;"/>
<line x1="15.000000" y1="15.000000" x2="15.000000" y2="129.000000"  style="stroke: black; stroke-linecap:round; stroke-width:0.25; stroke-dasharray:3,3;"/>
<line x1="15.000000" y1="129.000000" x2="306.900000" y2="129.000000"  style="stroke: black; stroke-linecap:round; stroke-width:0.25; stroke-dasharray:3,3;"/>
<line x1="306.900000" y1="129.000000" x2="306.900000" y2="15.000000"  style="stroke: black; stroke-linecap:round; stroke-width:0.25; stroke-dasharray:3,3;"/>
<line x1="15.000000" y1="15.000000" x2="20.000000" y2="15.000000"  style="stroke: black; stroke-linecap:round; stroke-width:0.25; stroke-dasharray:3,3;"/>
<line x1="132.875000" y1="15.000000" x2="306.900000" y2="15.000000"  style="stroke: black; stroke-linecap:round; stroke-width:0.25; stroke-dasharray:3,3;"/>
<text x="20.000000" y="17.000000" font-family="Arial" font-size="7">allpass(19)(0.90000000000000002f)</text>
<line x1="308.900000" y1="71.000000" x2="311.900000" y2="72.000000"  transform="rotate(0.000000,311.900000,72.000000)" style="stroke: black; stroke-width:0.25;"/>
<line x1="308.900000" y1="73.000000" x2="311.900000" y2="72.000000"  transform="rotate(0.000000,311.900000,72.000000)" style="stroke: black; stroke-width:0.25;"/>
<line x1="10.000000" y1="72.000000" x2="20.000000" y2="72.000000"  style="stroke:black; stroke-linecap:round; stroke-width:0.25;"/>
<line x1="20.000000" y1="72.000000" x2="24.000000" y2="72.000000"  style="stroke:black; stroke-linecap:round; stroke-width:0.25;"/>
<line x1="24.000000" y1="72.000000" x2="28.000000" y2="72.000000"  style="stroke:black; stroke-linecap:round; stroke-width:0.25;"/>
<line x1="28.000000" y1="72.000000" x2="28.000000" y2="72.000000"  style="stroke:black; stroke-linecap:round; stroke-width:0.25;"/>
<line x1="28.000000" y1="72.000000" x2="32.000000" y2="72.000000"  style="stroke:black; stroke-linecap:round; stroke-width:0.25;"/>
<line x1="32.000000" y1="72.000000" x2="36.000000" y2="72.000000"  style="stroke:black; stroke-linecap:round; stroke-width:0.25;"/>
<line x1="36.000000" y1="72.000000" x2="64.000000" y2="24.000000"  style="stroke:black; stroke-linecap:round; stroke-width:0.25;"/>
<line x1="36.000000" y1="72.000000" x2="64.000000" y2="76.000000"  style="stroke:black; stroke-linecap:round; stroke-width:0.25;"/>
<line x1="64.000000" y1="24.000000" x2="122.050000" y2="24.000000"  style="stroke:black; stroke-linecap:round; stroke-width:0.25;"/>
<line x1="64.000000" y1="76.000000" x2="68.000000" y2="76.000000"  style="stroke:black; stroke-linecap:round; stroke-width:0.25;"/>
<line x1="122.050000" y1="24.000000" x2="138.950000" y2="24.000000"  style="stroke:black; stroke-linecap:round; stroke-width:0.25;"/>
<line x1="138.950000" y1="24.000000" x2="155.850000" y2="24.000000"  style="stroke:black; stroke-linecap:round; stroke-width:0.25;"/>
<line x1="151.850000" y1="44.000000" x2="155.850000" y2="44.000000"  style="stroke:black; stroke-linecap:round; stroke-width:0.25;"/>
<line x1="151.850000" y1="108.000000" x2="155.850000" y2="108.000000"  style="stroke:black; stroke-linecap:round; stroke-width:0.25;"/>
<line x1="155.850000" y1="24.000000" x2="163.850000" y2="24.000000"  style="stroke:black; stroke-linecap:round; stroke-width:0.25;"/>
<line x1="155.850000" y1="44.000000" x2="163.850000" y2="44.000000"  style="stroke:black; stroke-linecap:round; stroke-width:0.25;"/>
<line x1="155.850000" y1="108.000000" x2="213.900000" y2="108.000000"  style="stroke:black; stroke-linecap:round; stroke-width:0.25;"/>
<line x1="163.850000" y1="24.000000" x2="163.850000" y2="36.000000"  style="stroke:black; stroke-linecap:round; stroke-width:0.25;"/>
<line x1="163.850000" y1="36.000000" x2="163.850000" y2="36.000000"  style="stroke:black; stroke-linecap:round; stroke-width:0.25;"/>
<line x1="163.850000" y1="36.000000" x2="167.850000" y2="36.000000"  style="stroke:black; stroke-linecap:round; stroke-width:0.25;"/>
<line x1="163.850000" y1="44.000000" x2="167.850000" y2="44.000000"  style="stroke:black; stroke-linecap:round; stroke-width:0.25;"/>
<line x1="191.850000" y1="40.000000" x2="195.850000" y2="40.000000"  style="stroke:black; stroke-linecap:round; stroke-width:0.25;"/>
<line x1="195.850000" y1="40.000000" x2="253.900000" y2="40.000000"  style="stroke:black; stroke-linecap:round; stroke-width:0.25;"/>
<line x1="209.900000" y1="76.000000" x2="213.900000" y2="76.000000"  style="stroke:black; stroke-linecap:round; stroke-width:0.25;"/>
<line x1="213.900000" y1="76.000000" x2="221.900000" y2="76.000000"  style="stroke:black; stroke-linecap:round; stroke-width:0.25;"/>
<line x1="213.900000" y1="96.000000" x2="221.900000" y2="96.000000"  style="stroke:black; stroke-linecap:round; stroke-width:0.25;"/>
<line x1="213.900000" y1="108.000000" x2="213.900000" y2="96.000000"  style="stroke:black; stroke-linecap:round; stroke-width:0.25;"/>
<line x1="213.900000" y1="108.000000" x2="213.900000" y2="108.000000"  style="stroke:black; stroke-linecap:round; stroke-width:0.25;"/>
<line x1="221.900000" y1="76.000000" x2="221.900000" y2="88.000000"  style="stroke:black; stroke-linecap:round; stroke-width:0.25;"/>
<line x1="221.900000" y1="88.000000" x2="221.900000" y2="88.000000"  style="stroke:black; stroke-linecap:round; stroke-width:0.25;"/>
<line x1="221.900000" y1="88.000000" x2="225.900000" y2="88.000000"  style="stroke:black; stroke-linecap:round; stroke-width:0.25;"/>
<line x1="221.900000" y1="96.000000" x2="225.900000" y2="96.000000"  style="stroke:black; stroke-linecap:round; stroke-width:0.25;"/>
<line x1="249.900000" y1="92.000000" x2="253.900000" y2="92.000000"  style="stroke:black; stroke-linecap:round; stroke-width:0.25;"/>
<line x1="253.900000" y1="76.000000" x2="261.900000" y2="76.000000"  style="stroke:black; stroke-linecap:round; stroke-width:0.25;"/>
<line x1="253.900000" y1="92.000000" x2="253.900000" y2="76.000000"  style="stroke:black; stroke-linecap:round; stroke-width:0.25;"/>
<line x1="253.900000" y1="92.000000" x2="253.900000" y2="92.000000"  style="stroke:black; stroke-linecap:round; stroke-width:0.25;"/>
<line x1="253.900000" y1="40.000000" x2="261.900000" y2="40.000000"  style="stroke:black; stroke-linecap:round; stroke-width:0.25;"/>
<line x1="261.900000" y1="68.000000" x2="265.900000" y2="68.000000"  style="stroke:black; stroke-linecap:round; stroke-width:0.25;"/>
<line x1="261.900000" y1="76.000000" x2="265.900000" y2="76.000000"  style="stroke:black; stroke-linecap:round; stroke-width:0.25;"/>
<line x1="261.900000" y1="40.000000" x2="261.900000" y2="68.000000"  style="stroke:black; stroke-linecap:round; stroke-width:0.25;"/>
<line x1="261.900000" y1="68.000000" x2="261.900000" y2="68.000000"  style="stroke:black; stroke-linecap:round; stroke-width:0.25;"/>
<line x1="289.900000" y1="72.000000" x2="293.900000" y2="72.000000"  style="stroke:black; stroke-linecap:round; stroke-width:0.25;"/>
<line x1="293.900000" y1="72.000000" x2="293.900000" y2="72.000000"  style="stroke:black; stroke-linecap:round; stroke-width:0.25;"/>
<line x1="293.900000" y1="72.000000" x2="297.900000" y2="72.000000"  style="stroke:black; stroke-linecap:round; stroke-width:0.25;"/>
<line x1="297.900000" y1="72.000000" x2="301.900000" y2="72.000000"  style="stroke:black; stroke-linecap:round; stroke-width:0.25;"/>
<line x1="301.900000" y1="72.000000" x2="311.900000" y2="72.000000"  style="stroke:black; stroke-linecap:round; stroke-width:0.25;"/>
</svg>
