<?xml version="1.0"?>
<svg xmlns="http://www.w3.org/2000/svg" xmlns:xlink="http://www.w3.org/1999/xlink" viewBox="0 0 955.400000 72.000000" width="477.700000mm" height="36.000000mm" version="1.1">
<a xlink:href="unit-0x7fbb4ba14530.svg">
<rect x="1.000000" y="1.000000" width="954.400000" height="71.000000" rx="0" ry="0" style="stroke:none;fill:#cccccc;"/>
<rect x="0.000000" y="0.000000" width="954.400000" height="71.000000" rx="0" ry="0" style="stroke:none;fill:#ffffff;"/>
</a>
<text x="10.000000" y="7.000000" font-family="Arial" font-size="7"></text>
<a xlink:href="allpass-0x7fbb4b8f9880.svg">
<rect x="33.000000" y="25.000000" width="141.900000" height="24.000000" rx="0" ry="0" style="stroke:none;fill:#cccccc;"/>
<rect x="32.000000" y="24.000000" width="141.900000" height="24.000000" rx="0" ry="0" style="stroke:none;fill:#003366;"/>
</a>
<a xlink:href="allpass-0x7fbb4b8f9880.svg">
<text x="102.950000" y="38.000000" font-family="Arial" font-size="7" text-anchor="middle" fill="#FFFFFF">allpass(37)(0.90000000000000002f)</text>
</a>
<circle cx="34.000000" cy="26.000000" r="1"/>
<line x1="29.000000" y1="35.000000" x2="32.000000" y2="36.000000"  transform="rotate(0.000000,32.000000,36.000000)" style="stroke: black; stroke-width:0.25;"/>
<line x1="29.000000" y1="37.000000" x2="32.000000" y2="36.000000"  transform="rotate(0.000000,32.000000,36.000000)" style="stroke: black; stroke-width:0.25;"/>
<a xlink:href="allpass-0x7fbb4ba00a80.svg">
<rect x="182.900000" y="25.000000" width="141.900000" height="24.000000" rx="0" ry="0" style="stroke:none;fill:#cccccc;"/>
<rect x="181.900000" y="24.000000" width="141.900000" height="24.000000" rx="0" ry="0" style="stroke:none;fill:#003366;"/>
</a>
<a xlink:href="allpass-0x7fbb4ba00a80.svg">
<text x="252.850000" y="38.000000" font-family="Arial" font-size="7" text-anchor="middle" fill="#FFFFFF">allpass(19)(0.90000000000000002f)</text>
</a>
<circle cx="183.900000" cy="26.000000" r="1"/>
<line x1="178.900000" y1="35.000000" x2="181.900000" y2="36.000000"  transform="rotate(0.000000,181.900000,36.000000)" style="stroke: black; stroke-width:0.25;"/>
<line x1="178.900000" y1="37.000000" x2="181.900000" y2="36.000000"  transform="rotate(0.000000,181.900000,36.000000)" style="stroke: black; stroke-width:0.25;"/>
<a xlink:href="allpass-0x7fbb4ba03f50.svg">
<rect x="332.800000" y="25.000000" width="141.900000" height="24.000000" rx="0" ry="0" style="stroke:none;fill:#cccccc;"/>
<rect x="331.800000" y="24.000000" width="141.900000" height="24.000000" rx="0" ry="0" style="stroke:none;fill:#003366;"/>
</a>
<a xlink:href="allpass-0x7fbb4ba03f50.svg">
<text x="402.750000" y="38.000000" font-family="Arial" font-size="7" text-anchor="middle" fill="#FFFFFF">allpass(53)(0.90000000000000002f)</text>
</a>
<circle cx="333.800000" cy="26.000000" r="1"/>
<line x1="328.800000" y1="35.000000" x2="331.800000" y2="36.000000"  transform="rotate(0.000000,331.800000,36.000000)" style="stroke: black; stroke-width:0.25;"/>
<line x1="328.800000" y1="37.000000" x2="331.800000" y2="36.000000"  transform="rotate(0.000000,331.800000,36.000000)" style="stroke: black; stroke-width:0.25;"/>
<a xlink:href="allpass-0x7fbb4b96e880.svg">
<rect x="482.700000" y="25.000000" width="141.900000" height="24.000000" rx="0" ry="0" style="stroke:none;fill:#cccccc;"/>
<rect x="481.700000" y="24.000000" width="141.900000" height="24.000000" rx="0" ry="0" style="stroke:none;fill:#003366;"/>
</a>
<a xlink:href="allpass-0x7fbb4b96e880.svg">
<text x="552.650000" y="38.000000" font-family="Arial" font-size="7" text-anchor="middle" fill="#FFFFFF">allpass(31)(0.90000000000000002f)</text>
</a>
<circle cx="483.700000" cy="26.000000" r="1"/>
<line x1="478.700000" y1="35.000000" x2="481.700000" y2="36.000000"  transform="rotate(0.000000,481.700000,36.000000)" style="stroke: black; stroke-width:0.25;"/>
<line x1="478.700000" y1="37.000000" x2="481.700000" y2="36.000000"  transform="rotate(0.000000,481.700000,36.000000)" style="stroke: black; stroke-width:0.25;"/>
<a xlink:href="allpass-0x7fbb4b971d70.svg">
<rect x="632.600000" y="25.000000" width="141.900000" height="24.000000" rx="0" ry="0" style="stroke:none;fill:#cccccc;"/>
<rect x="631.600000" y="24.000000" width="141.900000" height="24.000000" rx="0" ry="0" style="stroke:none;fill:#003366;"/>
</a>
<a xlink:href="allpass-0x7fbb4b971d70.svg">
<text x="702.550000" y="38.000000" font-family="Arial" font-size="7" text-anchor="middle" fill="#FFFFFF">allpass(67)(0.90000000000000002f)</text>
</a>
<circle cx="633.600000" cy="26.000000" r="1"/>
<line x1="628.600000" y1="35.000000" x2="631.600000" y2="36.000000"  transform="rotate(0.000000,631.600000,36.000000)" style="stroke: black; stroke-width:0.25;"/>
<line x1="628.600000" y1="37.000000" x2="631.600000" y2="36.000000"  transform="rotate(0.000000,631.600000,36.000000)" style="stroke: black; stroke-width:0.25;"/>
<a xlink:href="allpass-0x7fbb4b975230.svg">
<rect x="782.500000" y="25.000000" width="141.900000" height="24.000000" rx="0" ry="0" style="stroke:none;fill:#cccccc;"/>
<rect x="781.500000" y="24.000000" width="141.900000" height="24.000000" rx="0" ry="0" style="stroke:none;fill:#003366;"/>
</a>
<a xlink:href="allpass-0x7fbb4b975230.svg">
<text x="852.450000" y="38.000000" font-family="Arial" font-size="7" text-anchor="middle" fill="#FFFFFF">allpass(59)(0.90000000000000002f)</text>
</a>
<circle cx="783.500000" cy="26.000000" r="1"/>
<line x1="778.500000" y1="35.000000" x2="781.500000" y2="36.000000"  transform="rotate(0.000000,781.500000,36.000000)" style="stroke: black; stroke-width:0.25;"/>
<line x1="778.500000" y1="37.000000" x2="781.500000" y2="36.000000"  transform="rotate(0.000000,781.500000,36.000000)" style="stroke: black; stroke-width:0.25;"/>
<line x1="15.000000" y1="15.000000" x2="15.000000" y2="57.000000"  style="stroke: black; stroke-linecap:round; stroke-width:0.25; stroke-dasharray:3,3;"/>
<line x1="15.000000" y1="57.000000" x2="940.400000" y2="57.000000"  style="stroke: black; stroke-linecap:round; stroke-width:0.25; stroke-dasharray:3,3;"/>
<line x1="940.400000" y1="57.000000" x2="940.400000" y2="15.000000"  style="stroke: black; stroke-linecap:round; stroke-width:0.25; stroke-dasharray:3,3;"/>
<line x1="15.000000" y1="15.000000" x2="20.000000" y2="15.000000"  style="stroke: black; stroke-linecap:round; stroke-width:0.25; stroke-dasharray:3,3;"/>
<line x1="55.475000" y1="15.000000" x2="940.400000" y2="15.000000"  style="stroke: black; stroke-linecap:round; stroke-width:0.25; stroke-dasharray:3,3;"/>
<text x="20.000000" y="17.000000" font-family="Arial" font-size="7">allpasses</text>
<line x1="942.400000" y1="35.000000" x2="945.400000" y2="36.000000"  transform="rotate(0.000000,945.400000,36.000000)" style="stroke: black; stroke-width:0.25;"/>
<line x1="942.400000" y1="37.000000" x2="945.400000" y2="36.000000"  transform="rotate(0.000000,945.400000,36.000000)" style="stroke: black; stroke-width:0.25;"/>
<line x1="10.000000" y1="36.000000" x2="20.000000" y2="36.000000"  style="stroke:black; stroke-linecap:round; stroke-width:0.25;"/>
<line x1="20.000000" y1="36.000000" x2="24.000000" y2="36.000000"  style="stroke:black; stroke-linecap:round; stroke-width:0.25;"/>
<line x1="24.000000" y1="36.000000" x2="28.000000" y2="36.000000"  style="stroke:black; stroke-linecap:round; stroke-width:0.25;"/>
<line x1="28.000000" y1="36.000000" x2="28.000000" y2="36.000000"  style="stroke:black; stroke-linecap:round; stroke-width:0.25;"/>
<line x1="28.000000" y1="36.000000" x2="32.000000" y2="36.000000"  style="stroke:black; stroke-linecap:round; stroke-width:0.25;"/>
<line x1="173.900000" y1="36.000000" x2="177.900000" y2="36.000000"  style="stroke:black; stroke-linecap:round; stroke-width:0.25;"/>
<line x1="177.900000" y1="36.000000" x2="177.900000" y2="36.000000"  style="stroke:black; stroke-linecap:round; stroke-width:0.25;"/>
<line x1="177.900000" y1="36.000000" x2="181.900000" y2="36.000000"  style="stroke:black; stroke-linecap:round; stroke-width:0.25;"/>
<line x1="323.800000" y1="36.000000" x2="327.800000" y2="36.000000"  style="stroke:black; stroke-linecap:round; stroke-width:0.25;"/>
<line x1="327.800000" y1="36.000000" x2="327.800000" y2="36.000000"  style="stroke:black; stroke-linecap:round; stroke-width:0.25;"/>
<line x1="327.800000" y1="36.000000" x2="331.800000" y2="36.000000"  style="stroke:black; stroke-linecap:round; stroke-width:0.25;"/>
<line x1="473.700000" y1="36.000000" x2="477.700000" y2="36.000000"  style="stroke:black; stroke-linecap:round; stroke-width:0.25;"/>
<line x1="477.700000" y1="36.000000" x2="477.700000" y2="36.000000"  style="stroke:black; stroke-linecap:round; stroke-width:0.25;"/>
<line x1="477.700000" y1="36.000000" x2="481.700000" y2="36.000000"  style="stroke:black; stroke-linecap:round; stroke-width:0.25;"/>
<line x1="623.600000" y1="36.000000" x2="627.600000" y2="36.000000"  style="stroke:black; stroke-linecap:round; stroke-width:0.25;"/>
<line x1="627.600000" y1="36.000000" x2="627.600000" y2="36.000000"  style="stroke:black; stroke-linecap:round; stroke-width:0.25;"/>
<line x1="627.600000" y1="36.000000" x2="631.600000" y2="36.000000"  style="stroke:black; stroke-linecap:round; stroke-width:0.25;"/>
<line x1="773.500000" y1="36.000000" x2="777.500000" y2="36.000000"  style="stroke:black; stroke-linecap:round; stroke-width:0.25;"/>
<line x1="777.500000" y1="36.000000" x2="777.500000" y2="36.000000"  style="stroke:black; stroke-linecap:round; stroke-width:0.25;"/>
<line x1="777.500000" y1="36.000000" x2="781.500000" y2="36.000000"  style="stroke:black; stroke-linecap:round; stroke-width:0.25;"/>
<line x1="923.400000" y1="36.000000" x2="927.400000" y2="36.000000"  style="stroke:black; stroke-linecap:round; stroke-width:0.25;"/>
<line x1="927.400000" y1="36.000000" x2="927.400000" y2="36.000000"  style="stroke:black; stroke-linecap:round; stroke-width:0.25;"/>
<line x1="927.400000" y1="36.000000" x2="931.400000" y2="36.000000"  style="stroke:black; stroke-linecap:round; stroke-width:0.25;"/>
<line x1="931.400000" y1="36.000000" x2="935.400000" y2="36.000000"  style="stroke:black; stroke-linecap:round; stroke-width:0.25;"/>
<line x1="935.400000" y1="36.000000" x2="945.400000" y2="36.000000"  style="stroke:black; stroke-linecap:round; stroke-width:0.25;"/>
</svg>
