<?xml version="1.0"?>
<svg xmlns="http://www.w3.org/2000/svg" xmlns:xlink="http://www.w3.org/1999/xlink" viewBox="0 0 341.000000 296.000000" width="170.500000mm" height="148.000000mm" version="1.1">
<a xlink:href="unit-0x7fbb4b9a6bf0.svg">
<rect x="1.000000" y="1.000000" width="340.000000" height="295.000000" rx="0" ry="0" style="stroke:none;fill:#cccccc;"/>
<rect x="0.000000" y="0.000000" width="340.000000" height="295.000000" rx="0" ry="0" style="stroke:none;fill:#ffffff;"/>
</a>
<text x="10.000000" y="7.000000" font-family="Arial" font-size="7"></text>
<a xlink:href="lpcomb-0x7fbb4b9945b0.svg">
<rect x="107.000000" y="25.000000" width="129.000000" height="24.000000" rx="0" ry="0" style="stroke:none;fill:#cccccc;"/>
<rect x="106.000000" y="24.000000" width="129.000000" height="24.000000" rx="0" ry="0" style="stroke:none;fill:#003366;"/>
</a>
<a xlink:href="lpcomb-0x7fbb4b9945b0.svg">
<text x="170.500000" y="38.000000" font-family="Arial" font-size="7" text-anchor="middle" fill="#FFFFFF">lpcomb(3967)(...lenv = {}])))</text>
</a>
<circle cx="108.000000" cy="26.000000" r="1"/>
<line x1="103.000000" y1="35.000000" x2="106.000000" y2="36.000000"  transform="rotate(0.000000,106.000000,36.000000)" style="stroke: black; stroke-width:0.25;"/>
<line x1="103.000000" y1="37.000000" x2="106.000000" y2="36.000000"  transform="rotate(0.000000,106.000000,36.000000)" style="stroke: black; stroke-width:0.25;"/>
<a xlink:href="lpcomb-0x7fbb4b997510.svg">
<rect x="107.000000" y="57.000000" width="129.000000" height="24.000000" rx="0" ry="0" style="stroke:none;fill:#cccccc;"/>
<rect x="106.000000" y="56.000000" width="129.000000" height="24.000000" rx="0" ry="0" style="stroke:none;fill:#003366;"/>
</a>
<a xlink:href="lpcomb-0x7fbb4b997510.svg">
<text x="170.500000" y="70.000000" font-family="Arial" font-size="7" text-anchor="middle" fill="#FFFFFF">lpcomb(2971)(...lenv = {}])))</text>
</a>
<circle cx="108.000000" cy="58.000000" r="1"/>
<line x1="103.000000" y1="67.000000" x2="106.000000" y2="68.000000"  transform="rotate(0.000000,106.000000,68.000000)" style="stroke: black; stroke-width:0.25;"/>
<line x1="103.000000" y1="69.000000" x2="106.000000" y2="68.000000"  transform="rotate(0.000000,106.000000,68.000000)" style="stroke: black; stroke-width:0.25;"/>
<a xlink:href="lpcomb-0x7fbb4b99a470.svg">
<rect x="107.000000" y="89.000000" width="129.000000" height="24.000000" rx="0" ry="0" style="stroke:none;fill:#cccccc;"/>
<rect x="106.000000" y="88.000000" width="129.000000" height="24.000000" rx="0" ry="0" style="stroke:none;fill:#003366;"/>
</a>
<a xlink:href="lpcomb-0x7fbb4b99a470.svg">
<text x="170.500000" y="102.000000" font-family="Arial" font-size="7" text-anchor="middle" fill="#FFFFFF">lpcomb(1997)(...lenv = {}])))</text>
</a>
<circle cx="108.000000" cy="90.000000" r="1"/>
<line x1="103.000000" y1="99.000000" x2="106.000000" y2="100.000000"  transform="rotate(0.000000,106.000000,100.000000)" style="stroke: black; stroke-width:0.25;"/>
<line x1="103.000000" y1="101.000000" x2="106.000000" y2="100.000000"  transform="rotate(0.000000,106.000000,100.000000)" style="stroke: black; stroke-width:0.25;"/>
<a xlink:href="lpcomb-0x7fbb4b99d3d0.svg">
<rect x="107.000000" y="121.000000" width="129.000000" height="24.000000" rx="0" ry="0" style="stroke:none;fill:#cccccc;"/>
<rect x="106.000000" y="120.000000" width="129.000000" height="24.000000" rx="0" ry="0" style="stroke:none;fill:#003366;"/>
</a>
<a xlink:href="lpcomb-0x7fbb4b99d3d0.svg">
<text x="170.500000" y="134.000000" font-family="Arial" font-size="7" text-anchor="middle" fill="#FFFFFF">lpcomb(991)(v...lenv = {}])))</text>
</a>
<circle cx="108.000000" cy="122.000000" r="1"/>
<line x1="103.000000" y1="131.000000" x2="106.000000" y2="132.000000"  transform="rotate(0.000000,106.000000,132.000000)" style="stroke: black; stroke-width:0.25;"/>
<line x1="103.000000" y1="133.000000" x2="106.000000" y2="132.000000"  transform="rotate(0.000000,106.000000,132.000000)" style="stroke: black; stroke-width:0.25;"/>
<a xlink:href="lpcomb-0x7fbb4b9a0330.svg">
<rect x="107.000000" y="153.000000" width="129.000000" height="24.000000" rx="0" ry="0" style="stroke:none;fill:#cccccc;"/>
<rect x="106.000000" y="152.000000" width="129.000000" height="24.000000" rx="0" ry="0" style="stroke:none;fill:#003366;"/>
</a>
<a xlink:href="lpcomb-0x7fbb4b9a0330.svg">
<text x="170.500000" y="166.000000" font-family="Arial" font-size="7" text-anchor="middle" fill="#FFFFFF">lpcomb(491)(v...lenv = {}])))</text>
</a>
<circle cx="108.000000" cy="154.000000" r="1"/>
<line x1="103.000000" y1="163.000000" x2="106.000000" y2="164.000000"  transform="rotate(0.000000,106.000000,164.000000)" style="stroke: black; stroke-width:0.25;"/>
<line x1="103.000000" y1="165.000000" x2="106.000000" y2="164.000000"  transform="rotate(0.000000,106.000000,164.000000)" style="stroke: black; stroke-width:0.25;"/>
<a xlink:href="lpcomb-0x7fbb4b9a3290.svg">
<rect x="107.000000" y="185.000000" width="129.000000" height="24.000000" rx="0" ry="0" style="stroke:none;fill:#cccccc;"/>
<rect x="106.000000" y="184.000000" width="129.000000" height="24.000000" rx="0" ry="0" style="stroke:none;fill:#003366;"/>
</a>
<a xlink:href="lpcomb-0x7fbb4b9a3290.svg">
<text x="170.500000" y="198.000000" font-family="Arial" font-size="7" text-anchor="middle" fill="#FFFFFF">lpcomb(283)(v...lenv = {}])))</text>
</a>
<circle cx="108.000000" cy="186.000000" r="1"/>
<line x1="103.000000" y1="195.000000" x2="106.000000" y2="196.000000"  transform="rotate(0.000000,106.000000,196.000000)" style="stroke: black; stroke-width:0.25;"/>
<line x1="103.000000" y1="197.000000" x2="106.000000" y2="196.000000"  transform="rotate(0.000000,106.000000,196.000000)" style="stroke: black; stroke-width:0.25;"/>
<a xlink:href="lpcomb-0x7fbb4b9a61f0.svg">
<rect x="107.000000" y="217.000000" width="129.000000" height="24.000000" rx="0" ry="0" style="stroke:none;fill:#cccccc;"/>
<rect x="106.000000" y="216.000000" width="129.000000" height="24.000000" rx="0" ry="0" style="stroke:none;fill:#003366;"/>
</a>
<a xlink:href="lpcomb-0x7fbb4b9a61f0.svg">
<text x="170.500000" y="230.000000" font-family="Arial" font-size="7" text-anchor="middle" fill="#FFFFFF">lpcomb(101)(v...lenv = {}])))</text>
</a>
<circle cx="108.000000" cy="218.000000" r="1"/>
<line x1="103.000000" y1="227.000000" x2="106.000000" y2="228.000000"  transform="rotate(0.000000,106.000000,228.000000)" style="stroke: black; stroke-width:0.25;"/>
<line x1="103.000000" y1="229.000000" x2="106.000000" y2="228.000000"  transform="rotate(0.000000,106.000000,228.000000)" style="stroke: black; stroke-width:0.25;"/>
<a xlink:href="lpcomb-0x7fbb4b8f5aa0.svg">
<rect x="107.000000" y="249.000000" width="129.000000" height="24.000000" rx="0" ry="0" style="stroke:none;fill:#cccccc;"/>
<rect x="106.000000" y="248.000000" width="129.000000" height="24.000000" rx="0" ry="0" style="stroke:none;fill:#003366;"/>
</a>
<a xlink:href="lpcomb-0x7fbb4b8f5aa0.svg">
<text x="170.500000" y="262.000000" font-family="Arial" font-size="7" text-anchor="middle" fill="#FFFFFF">lpcomb(41)(vg...lenv = {}])))</text>
</a>
<circle cx="108.000000" cy="250.000000" r="1"/>
<line x1="103.000000" y1="259.000000" x2="106.000000" y2="260.000000"  transform="rotate(0.000000,106.000000,260.000000)" style="stroke: black; stroke-width:0.25;"/>
<line x1="103.000000" y1="261.000000" x2="106.000000" y2="260.000000"  transform="rotate(0.000000,106.000000,260.000000)" style="stroke: black; stroke-width:0.25;"/>
<line x1="15.000000" y1="15.000000" x2="15.000000" y2="281.000000"  style="stroke: black; stroke-linecap:round; stroke-width:0.25; stroke-dasharray:3,3;"/>
<line x1="15.000000" y1="281.000000" x2="326.000000" y2="281.000000"  style="stroke: black; stroke-linecap:round; stroke-width:0.25; stroke-dasharray:3,3;"/>
<line x1="326.000000" y1="281.000000" x2="326.000000" y2="15.000000"  style="stroke: black; stroke-linecap:round; stroke-width:0.25; stroke-dasharray:3,3;"/>
<line x1="15.000000" y1="15.000000" x2="20.000000" y2="15.000000"  style="stroke: black; stroke-linecap:round; stroke-width:0.25; stroke-dasharray:3,3;"/>
<line x1="68.375000" y1="15.000000" x2="326.000000" y2="15.000000"  style="stroke: black; stroke-linecap:round; stroke-width:0.25; stroke-dasharray:3,3;"/>
<text x="20.000000" y="17.000000" font-family="Arial" font-size="7">comb_filtersB</text>
<line x1="328.000000" y1="147.000000" x2="331.000000" y2="148.000000"  transform="rotate(0.000000,331.000000,148.000000)" style="stroke: black; stroke-width:0.25;"/>
<line x1="328.000000" y1="149.000000" x2="331.000000" y2="148.000000"  transform="rotate(0.000000,331.000000,148.000000)" style="stroke: black; stroke-width:0.25;"/>
<line x1="10.000000" y1="148.000000" x2="20.000000" y2="148.000000"  style="stroke:black; stroke-linecap:round; stroke-width:0.25;"/>
<line x1="20.000000" y1="148.000000" x2="24.000000" y2="148.000000"  style="stroke:black; stroke-linecap:round; stroke-width:0.25;"/>
<line x1="24.000000" y1="148.000000" x2="28.000000" y2="148.000000"  style="stroke:black; stroke-linecap:round; stroke-width:0.25;"/>
<line x1="28.000000" y1="148.000000" x2="28.000000" y2="148.000000"  style="stroke:black; stroke-linecap:round; stroke-width:0.25;"/>
<line x1="28.000000" y1="148.000000" x2="32.000000" y2="148.000000"  style="stroke:black; stroke-linecap:round; stroke-width:0.25;"/>
<line x1="32.000000" y1="148.000000" x2="36.000000" y2="148.000000"  style="stroke:black; stroke-linecap:round; stroke-width:0.25;"/>
<line x1="36.000000" y1="148.000000" x2="102.000000" y2="36.000000"  style="stroke:black; stroke-linecap:round; stroke-width:0.25;"/>
<line x1="36.000000" y1="148.000000" x2="102.000000" y2="68.000000"  style="stroke:black; stroke-linecap:round; stroke-width:0.25;"/>
<line x1="36.000000" y1="148.000000" x2="102.000000" y2="100.000000"  style="stroke:black; stroke-linecap:round; stroke-width:0.25;"/>
<line x1="36.000000" y1="148.000000" x2="102.000000" y2="132.000000"  style="stroke:black; stroke-linecap:round; stroke-width:0.25;"/>
<line x1="36.000000" y1="148.000000" x2="102.000000" y2="164.000000"  style="stroke:black; stroke-linecap:round; stroke-width:0.25;"/>
<line x1="36.000000" y1="148.000000" x2="102.000000" y2="196.000000"  style="stroke:black; stroke-linecap:round; stroke-width:0.25;"/>
<line x1="36.000000" y1="148.000000" x2="102.000000" y2="228.000000"  style="stroke:black; stroke-linecap:round; stroke-width:0.25;"/>
<line x1="36.000000" y1="148.000000" x2="102.000000" y2="260.000000"  style="stroke:black; stroke-linecap:round; stroke-width:0.25;"/>
<line x1="102.000000" y1="36.000000" x2="106.000000" y2="36.000000"  style="stroke:black; stroke-linecap:round; stroke-width:0.25;"/>
<line x1="102.000000" y1="68.000000" x2="106.000000" y2="68.000000"  style="stroke:black; stroke-linecap:round; stroke-width:0.25;"/>
<line x1="102.000000" y1="100.000000" x2="106.000000" y2="100.000000"  style="stroke:black; stroke-linecap:round; stroke-width:0.25;"/>
<line x1="102.000000" y1="132.000000" x2="106.000000" y2="132.000000"  style="stroke:black; stroke-linecap:round; stroke-width:0.25;"/>
<line x1="102.000000" y1="164.000000" x2="106.000000" y2="164.000000"  style="stroke:black; stroke-linecap:round; stroke-width:0.25;"/>
<line x1="102.000000" y1="196.000000" x2="106.000000" y2="196.000000"  style="stroke:black; stroke-linecap:round; stroke-width:0.25;"/>
<line x1="102.000000" y1="228.000000" x2="106.000000" y2="228.000000"  style="stroke:black; stroke-linecap:round; stroke-width:0.25;"/>
<line x1="102.000000" y1="260.000000" x2="106.000000" y2="260.000000"  style="stroke:black; stroke-linecap:round; stroke-width:0.25;"/>
<line x1="235.000000" y1="36.000000" x2="239.000000" y2="36.000000"  style="stroke:black; stroke-linecap:round; stroke-width:0.25;"/>
<line x1="235.000000" y1="68.000000" x2="239.000000" y2="68.000000"  style="stroke:black; stroke-linecap:round; stroke-width:0.25;"/>
<line x1="235.000000" y1="100.000000" x2="239.000000" y2="100.000000"  style="stroke:black; stroke-linecap:round; stroke-width:0.25;"/>
<line x1="235.000000" y1="132.000000" x2="239.000000" y2="132.000000"  style="stroke:black; stroke-linecap:round; stroke-width:0.25;"/>
<line x1="235.000000" y1="164.000000" x2="239.000000" y2="164.000000"  style="stroke:black; stroke-linecap:round; stroke-width:0.25;"/>
<line x1="235.000000" y1="196.000000" x2="239.000000" y2="196.000000"  style="stroke:black; stroke-linecap:round; stroke-width:0.25;"/>
<line x1="235.000000" y1="228.000000" x2="239.000000" y2="228.000000"  style="stroke:black; stroke-linecap:round; stroke-width:0.25;"/>
<line x1="235.000000" y1="260.000000" x2="239.000000" y2="260.000000"  style="stroke:black; stroke-linecap:round; stroke-width:0.25;"/>
<line x1="239.000000" y1="36.000000" x2="305.000000" y2="148.000000"  style="stroke:black; stroke-linecap:round; stroke-width:0.25;"/>
<line x1="239.000000" y1="68.000000" x2="305.000000" y2="148.000000"  style="stroke:black; stroke-linecap:round; stroke-width:0.25;"/>
<line x1="239.000000" y1="100.000000" x2="305.000000" y2="148.000000"  style="stroke:black; stroke-linecap:round; stroke-width:0.25;"/>
<line x1="239.000000" y1="132.000000" x2="305.000000" y2="148.000000"  style="stroke:black; stroke-linecap:round; stroke-width:0.25;"/>
<line x1="239.000000" y1="164.000000" x2="305.000000" y2="148.000000"  style="stroke:black; stroke-linecap:round; stroke-width:0.25;"/>
<line x1="239.000000" y1="196.000000" x2="305.000000" y2="148.000000"  style="stroke:black; stroke-linecap:round; stroke-width:0.25;"/>
<line x1="239.000000" y1="228.000000" x2="305.000000" y2="148.000000"  style="stroke:black; stroke-linecap:round; stroke-width:0.25;"/>
<line x1="239.000000" y1="260.000000" x2="305.000000" y2="148.000000"  style="stroke:black; stroke-linecap:round; stroke-width:0.25;"/>
<line x1="305.000000" y1="148.000000" x2="309.000000" y2="148.000000"  style="stroke:black; stroke-linecap:round; stroke-width:0.25;"/>
<line x1="309.000000" y1="148.000000" x2="313.000000" y2="148.000000"  style="stroke:black; stroke-linecap:round; stroke-width:0.25;"/>
<line x1="313.000000" y1="148.000000" x2="313.000000" y2="148.000000"  style="stroke:black; stroke-linecap:round; stroke-width:0.25;"/>
<line x1="313.000000" y1="148.000000" x2="317.000000" y2="148.000000"  style="stroke:black; stroke-linecap:round; stroke-width:0.25;"/>
<line x1="317.000000" y1="148.000000" x2="321.000000" y2="148.000000"  style="stroke:black; stroke-linecap:round; stroke-width:0.25;"/>
<line x1="321.000000" y1="148.000000" x2="331.000000" y2="148.000000"  style="stroke:black; stroke-linecap:round; stroke-width:0.25;"/>
</svg>
