<?xml version="1.0" encoding="UTF-8"?>
<svg xmlns="http://www.w3.org/2000/svg" xmlns:xlink="http://www.w3.org/1999/xlink" width="841pt" height="595pt" viewBox="0 0 841 595" version="1.2">
<defs>
<g>
<symbol overflow="visible" id="glyph0-0">
<path style="stroke:none;" d="M 0.59375 2.125 L 0.59375 -8.46875 L 6.59375 -8.46875 L 6.59375 2.125 Z M 1.265625 1.453125 L 5.9375 1.453125 L 5.9375 -7.78125 L 1.265625 -7.78125 Z M 1.265625 1.453125 "/>
</symbol>
<symbol overflow="visible" id="glyph0-1">
<path style="stroke:none;" d="M 1.171875 -8.75 L 2.359375 -8.75 L 2.359375 -1 L 6.625 -1 L 6.625 0 L 1.171875 0 Z M 1.171875 -8.75 "/>
</symbol>
<symbol overflow="visible" id="glyph0-2">
<path style="stroke:none;" d="M 1.125 -6.5625 L 2.203125 -6.5625 L 2.203125 0 L 1.125 0 Z M 1.125 -9.125 L 2.203125 -9.125 L 2.203125 -7.75 L 1.125 -7.75 Z M 1.125 -9.125 "/>
</symbol>
<symbol overflow="visible" id="glyph0-3">
<path style="stroke:none;" d="M 6.234375 -5.296875 C 6.503906 -5.785156 6.828125 -6.144531 7.203125 -6.375 C 7.578125 -6.601562 8.019531 -6.71875 8.53125 -6.71875 C 9.21875 -6.71875 9.742188 -6.476562 10.109375 -6 C 10.484375 -5.519531 10.671875 -4.84375 10.671875 -3.96875 L 10.671875 0 L 9.59375 0 L 9.59375 -3.921875 C 9.59375 -4.554688 9.476562 -5.023438 9.25 -5.328125 C 9.03125 -5.628906 8.691406 -5.78125 8.234375 -5.78125 C 7.671875 -5.78125 7.226562 -5.59375 6.90625 -5.21875 C 6.582031 -4.851562 6.421875 -4.347656 6.421875 -3.703125 L 6.421875 0 L 5.34375 0 L 5.34375 -3.921875 C 5.34375 -4.554688 5.226562 -5.023438 5 -5.328125 C 4.78125 -5.628906 4.4375 -5.78125 3.96875 -5.78125 C 3.414062 -5.78125 2.976562 -5.59375 2.65625 -5.21875 C 2.332031 -4.851562 2.171875 -4.347656 2.171875 -3.703125 L 2.171875 0 L 1.09375 0 L 1.09375 -6.5625 L 2.171875 -6.5625 L 2.171875 -5.546875 C 2.421875 -5.941406 2.71875 -6.234375 3.0625 -6.421875 C 3.40625 -6.617188 3.8125 -6.71875 4.28125 -6.71875 C 4.757812 -6.71875 5.164062 -6.597656 5.5 -6.359375 C 5.832031 -6.117188 6.078125 -5.765625 6.234375 -5.296875 Z M 6.234375 -5.296875 "/>
</symbol>
<symbol overflow="visible" id="glyph0-4">
<path style="stroke:none;" d="M 6.75 -3.546875 L 6.75 -3.03125 L 1.78125 -3.03125 C 1.832031 -2.28125 2.054688 -1.710938 2.453125 -1.328125 C 2.859375 -0.941406 3.414062 -0.75 4.125 -0.75 C 4.539062 -0.75 4.941406 -0.796875 5.328125 -0.890625 C 5.722656 -0.992188 6.113281 -1.148438 6.5 -1.359375 L 6.5 -0.328125 C 6.101562 -0.171875 5.703125 -0.0507812 5.296875 0.03125 C 4.890625 0.125 4.476562 0.171875 4.0625 0.171875 C 3.019531 0.171875 2.191406 -0.128906 1.578125 -0.734375 C 0.960938 -1.347656 0.65625 -2.175781 0.65625 -3.21875 C 0.65625 -4.289062 0.945312 -5.140625 1.53125 -5.765625 C 2.113281 -6.398438 2.894531 -6.71875 3.875 -6.71875 C 4.757812 -6.71875 5.457031 -6.429688 5.96875 -5.859375 C 6.488281 -5.296875 6.75 -4.523438 6.75 -3.546875 Z M 5.671875 -3.875 C 5.660156 -4.457031 5.492188 -4.925781 5.171875 -5.28125 C 4.847656 -5.632812 4.421875 -5.8125 3.890625 -5.8125 C 3.285156 -5.8125 2.800781 -5.640625 2.4375 -5.296875 C 2.082031 -4.953125 1.878906 -4.472656 1.828125 -3.859375 Z M 5.671875 -3.875 "/>
</symbol>
<symbol overflow="visible" id="glyph0-5">
<path style="stroke:none;" d="M 5.3125 -6.375 L 5.3125 -5.34375 C 5.007812 -5.5 4.691406 -5.613281 4.359375 -5.6875 C 4.035156 -5.769531 3.695312 -5.8125 3.34375 -5.8125 C 2.8125 -5.8125 2.410156 -5.726562 2.140625 -5.5625 C 1.867188 -5.40625 1.734375 -5.160156 1.734375 -4.828125 C 1.734375 -4.578125 1.828125 -4.378906 2.015625 -4.234375 C 2.210938 -4.097656 2.601562 -3.96875 3.1875 -3.84375 L 3.546875 -3.75 C 4.316406 -3.59375 4.863281 -3.363281 5.1875 -3.0625 C 5.507812 -2.757812 5.671875 -2.34375 5.671875 -1.8125 C 5.671875 -1.195312 5.425781 -0.710938 4.9375 -0.359375 C 4.457031 -0.00390625 3.796875 0.171875 2.953125 0.171875 C 2.597656 0.171875 2.226562 0.132812 1.84375 0.0625 C 1.46875 0 1.070312 -0.0976562 0.65625 -0.234375 L 0.65625 -1.359375 C 1.050781 -1.148438 1.441406 -0.992188 1.828125 -0.890625 C 2.210938 -0.785156 2.597656 -0.734375 2.984375 -0.734375 C 3.484375 -0.734375 3.867188 -0.816406 4.140625 -0.984375 C 4.421875 -1.160156 4.5625 -1.410156 4.5625 -1.734375 C 4.5625 -2.023438 4.460938 -2.25 4.265625 -2.40625 C 4.066406 -2.5625 3.632812 -2.710938 2.96875 -2.859375 L 2.59375 -2.9375 C 1.925781 -3.082031 1.441406 -3.300781 1.140625 -3.59375 C 0.847656 -3.882812 0.703125 -4.28125 0.703125 -4.78125 C 0.703125 -5.40625 0.921875 -5.882812 1.359375 -6.21875 C 1.796875 -6.550781 2.414062 -6.71875 3.21875 -6.71875 C 3.613281 -6.71875 3.988281 -6.6875 4.34375 -6.625 C 4.695312 -6.570312 5.019531 -6.488281 5.3125 -6.375 Z M 5.3125 -6.375 "/>
</symbol>
<symbol overflow="visible" id="glyph0-6">
<path style="stroke:none;" d="M 6.59375 -3.96875 L 6.59375 0 L 5.515625 0 L 5.515625 -3.921875 C 5.515625 -4.546875 5.390625 -5.007812 5.140625 -5.3125 C 4.898438 -5.625 4.539062 -5.78125 4.0625 -5.78125 C 3.476562 -5.78125 3.015625 -5.59375 2.671875 -5.21875 C 2.335938 -4.851562 2.171875 -4.347656 2.171875 -3.703125 L 2.171875 0 L 1.09375 0 L 1.09375 -6.5625 L 2.171875 -6.5625 L 2.171875 -5.546875 C 2.429688 -5.941406 2.734375 -6.234375 3.078125 -6.421875 C 3.429688 -6.617188 3.835938 -6.71875 4.296875 -6.71875 C 5.046875 -6.71875 5.613281 -6.484375 6 -6.015625 C 6.394531 -5.554688 6.59375 -4.875 6.59375 -3.96875 Z M 6.59375 -3.96875 "/>
</symbol>
</g>
</defs>
<g id="surface62684">
<rect x="0" y="0" width="841" height="595" style="fill:rgb(100%,100%,100%);fill-opacity:1;stroke:none;"/>
<path style="fill:none;stroke-width:0.85;stroke-linecap:round;stroke-linejoin:round;stroke:rgb(0%,0%,0%);stroke-opacity:1;comp-op:src;clip-to-self:true;stroke-miterlimit:10;" d="M 301.335938 208.71875 L 301.34375 207.390625 L 301.378906 206.058594 L 301.433594 204.726562 L 301.507812 203.398438 L 301.605469 202.066406 L 301.722656 200.738281 L 301.863281 199.414062 L 302.027344 198.089844 L 302.210938 196.765625 L 302.414062 195.445312 L 302.640625 194.128906 L 302.886719 192.8125 L 303.15625 191.5 L 303.445312 190.191406 L 303.757812 188.886719 L 304.089844 187.585938 L 304.445312 186.289062 L 304.820312 184.996094 L 305.214844 183.707031 L 305.632812 182.421875 L 306.070312 181.144531 L 306.527344 179.871094 L 307.003906 178.601562 L 307.503906 177.339844 L 308.023438 176.082031 L 308.566406 174.832031 L 309.125 173.585938 L 309.707031 172.347656 L 310.304688 171.117188 L 310.925781 169.894531 L 311.566406 168.679688 L 312.226562 167.46875 L 312.90625 166.269531 L 313.605469 165.074219 L 314.324219 163.890625 L 315.0625 162.714844 L 315.816406 161.546875 L 316.59375 160.390625 L 317.386719 159.238281 L 318.199219 158.101562 L 319.03125 156.96875 L 319.878906 155.847656 L 320.746094 154.738281 L 321.632812 153.636719 L 322.535156 152.546875 L 323.457031 151.46875 L 324.394531 150.398438 L 325.351562 149.339844 L 326.324219 148.296875 L 327.3125 147.261719 L 328.320312 146.238281 L 329.339844 145.226562 L 330.378906 144.226562 L 331.4375 143.238281 L 332.507812 142.261719 L 333.59375 141.300781 L 334.695312 140.351562 L 335.8125 139.414062 L 336.945312 138.492188 L 338.09375 137.582031 L 339.257812 136.683594 L 340.433594 135.800781 L 341.625 134.929688 L 342.828125 134.074219 L 344.046875 133.234375 L 345.28125 132.40625 L 346.527344 131.59375 L 347.785156 130.796875 L 349.058594 130.011719 L 350.339844 129.242188 L 351.636719 128.492188 L 352.945312 127.753906 L 354.265625 127.027344 L 355.597656 126.320312 L 356.941406 125.628906 L 358.296875 124.953125 L 359.664062 124.292969 L 361.039062 123.648438 L 362.425781 123.019531 L 363.820312 122.40625 L 365.226562 121.8125 L 366.644531 121.230469 L 368.070312 120.667969 L 369.503906 120.121094 L 370.945312 119.59375 L 372.398438 119.078125 L 373.855469 118.585938 L 375.324219 118.105469 L 376.796875 117.644531 L 378.28125 117.199219 L 379.769531 116.773438 L 381.265625 116.363281 L 382.769531 115.96875 L 384.277344 115.59375 L 385.792969 115.238281 L 387.3125 114.898438 L 388.839844 114.578125 L 390.371094 114.273438 L 391.90625 113.988281 L 393.445312 113.71875 L 394.992188 113.46875 L 396.539062 113.234375 L 398.09375 113.023438 L 399.648438 112.824219 L 401.207031 112.648438 L 402.765625 112.488281 L 404.332031 112.347656 L 405.898438 112.222656 L 407.464844 112.117188 L 409.035156 112.03125 L 410.605469 111.960938 L 412.175781 111.910156 L 413.746094 111.878906 L 415.320312 111.867188 L 416.890625 111.871094 L 418.464844 111.894531 L 420.035156 111.933594 L 421.609375 111.996094 L 423.175781 112.070312 L 424.746094 112.167969 L 426.3125 112.28125 L 427.878906 112.414062 L 429.441406 112.566406 L 431 112.734375 L 432.554688 112.921875 L 434.109375 113.125 L 435.660156 113.351562 L 437.207031 113.589844 L 438.75 113.851562 L 440.289062 114.128906 L 441.820312 114.421875 L 443.351562 114.734375 L 444.875 115.066406 L 446.390625 115.414062 L 447.902344 115.78125 L 449.410156 116.164062 L 450.910156 116.566406 L 452.402344 116.984375 L 453.886719 117.417969 L 455.367188 117.871094 L 456.835938 118.34375 L 458.300781 118.828125 L 459.757812 119.335938 L 461.203125 119.855469 L 462.640625 120.394531 L 464.070312 120.949219 L 465.492188 121.519531 L 466.902344 122.105469 L 468.304688 122.710938 L 469.695312 123.332031 L 471.078125 123.96875 L 472.449219 124.621094 L 473.808594 125.289062 L 475.15625 125.972656 L 476.496094 126.671875 L 477.820312 127.386719 L 479.136719 128.121094 L 480.4375 128.867188 L 481.730469 129.625 L 483.007812 130.402344 L 484.273438 131.191406 L 485.523438 132 L 486.761719 132.820312 L 487.988281 133.652344 L 489.199219 134.5 L 490.398438 135.363281 L 491.582031 136.242188 L 492.753906 137.128906 L 493.90625 138.035156 L 495.046875 138.953125 L 496.171875 139.882812 L 497.28125 140.824219 L 498.378906 141.78125 L 499.457031 142.75 L 500.519531 143.730469 L 501.566406 144.722656 L 502.597656 145.730469 L 503.613281 146.746094 L 504.609375 147.777344 L 505.589844 148.816406 L 506.554688 149.867188 L 507.503906 150.933594 L 508.433594 152.007812 L 509.34375 153.089844 L 510.238281 154.1875 L 511.113281 155.292969 L 511.972656 156.40625 L 512.8125 157.535156 L 513.636719 158.667969 L 514.4375 159.8125 L 515.222656 160.96875 L 515.988281 162.128906 L 516.734375 163.300781 L 517.464844 164.484375 L 518.171875 165.671875 L 518.863281 166.867188 L 519.53125 168.074219 L 520.183594 169.285156 L 520.8125 170.503906 L 521.421875 171.734375 L 522.011719 172.96875 L 522.582031 174.207031 L 523.132812 175.457031 L 523.664062 176.707031 L 524.171875 177.96875 L 524.664062 179.234375 L 525.128906 180.503906 L 525.578125 181.78125 L 526.003906 183.0625 L 526.410156 184.351562 L 526.796875 185.640625 L 527.160156 186.9375 L 527.503906 188.234375 L 527.828125 189.539062 L 528.128906 190.847656 L 528.40625 192.15625 L 528.664062 193.46875 L 528.902344 194.785156 L 529.117188 196.105469 L 529.3125 197.425781 L 529.484375 198.75 L 529.636719 200.078125 L 529.765625 201.402344 L 529.871094 202.730469 L 529.960938 204.0625 L 530.023438 205.390625 L 530.066406 206.722656 L 530.089844 208.054688 L 530.089844 209.386719 L 530.066406 210.71875 L 530.023438 212.050781 L 529.960938 213.378906 L 529.871094 214.707031 L 529.765625 216.039062 L 529.636719 217.363281 L 529.484375 218.691406 L 529.3125 220.011719 L 529.117188 221.335938 L 528.902344 222.652344 L 528.664062 223.96875 L 528.40625 225.285156 L 528.128906 226.59375 L 527.828125 227.902344 L 527.503906 229.203125 L 527.160156 230.503906 L 526.796875 231.800781 L 526.410156 233.089844 L 526.003906 234.378906 L 525.578125 235.660156 L 525.128906 236.933594 L 524.664062 238.207031 L 524.171875 239.472656 L 523.664062 240.730469 L 523.132812 241.984375 L 522.582031 243.234375 L 522.011719 244.472656 L 521.421875 245.707031 L 520.8125 246.933594 L 520.183594 248.15625 L 519.53125 249.367188 L 518.863281 250.574219 L 518.171875 251.769531 L 517.464844 252.957031 L 516.734375 254.140625 L 515.988281 255.308594 L 515.222656 256.472656 L 514.4375 257.628906 L 513.636719 258.773438 L 512.8125 259.90625 L 511.972656 261.03125 L 511.113281 262.148438 L 510.238281 263.253906 L 509.34375 264.351562 L 508.433594 265.433594 L 507.503906 266.507812 L 506.554688 267.570312 L 505.589844 268.625 L 504.609375 269.664062 L 503.613281 270.695312 L 502.597656 271.710938 L 501.566406 272.714844 L 500.519531 273.710938 L 499.457031 274.691406 L 498.378906 275.660156 L 497.28125 276.617188 L 496.171875 277.558594 L 495.046875 278.488281 L 493.90625 279.40625 L 492.753906 280.308594 L 491.582031 281.199219 L 490.398438 282.078125 L 489.199219 282.9375 L 487.988281 283.789062 L 486.761719 284.621094 L 485.523438 285.441406 L 484.273438 286.246094 L 483.007812 287.039062 L 481.730469 287.816406 L 480.4375 288.574219 L 479.136719 289.320312 L 477.820312 290.050781 L 476.496094 290.769531 L 475.15625 291.46875 L 473.808594 292.152344 L 472.449219 292.820312 L 471.078125 293.472656 L 469.695312 294.109375 L 468.304688 294.730469 L 466.902344 295.332031 L 465.492188 295.921875 L 464.070312 296.492188 L 462.640625 297.046875 L 461.203125 297.585938 L 459.757812 298.105469 L 458.300781 298.609375 L 456.835938 299.097656 L 455.367188 299.570312 L 453.886719 300.023438 L 452.402344 300.457031 L 450.910156 300.875 L 449.410156 301.277344 L 447.902344 301.660156 L 446.390625 302.027344 L 444.875 302.375 L 443.351562 302.707031 L 441.820312 303.019531 L 440.289062 303.3125 L 438.75 303.589844 L 437.207031 303.851562 L 435.660156 304.089844 L 434.109375 304.3125 L 432.554688 304.519531 L 431 304.707031 L 429.441406 304.875 L 427.878906 305.027344 L 426.3125 305.160156 L 424.746094 305.273438 L 423.175781 305.367188 L 421.609375 305.445312 L 420.035156 305.507812 L 418.464844 305.546875 L 416.890625 305.570312 L 415.320312 305.574219 L 413.746094 305.5625 L 412.175781 305.527344 L 410.605469 305.480469 L 409.035156 305.410156 L 407.464844 305.324219 L 405.898438 305.21875 L 404.332031 305.09375 L 402.765625 304.953125 L 401.207031 304.792969 L 399.648438 304.613281 L 398.09375 304.417969 L 396.539062 304.203125 L 394.992188 303.972656 L 393.445312 303.722656 L 391.90625 303.453125 L 390.371094 303.167969 L 388.839844 302.863281 L 387.3125 302.542969 L 385.792969 302.203125 L 384.277344 301.84375 L 382.769531 301.472656 L 381.265625 301.078125 L 379.769531 300.667969 L 378.28125 300.242188 L 376.796875 299.796875 L 375.324219 299.335938 L 373.855469 298.855469 L 372.398438 298.359375 L 370.945312 297.847656 L 369.503906 297.320312 L 368.070312 296.773438 L 366.644531 296.210938 L 365.226562 295.628906 L 363.820312 295.035156 L 362.425781 294.421875 L 361.039062 293.792969 L 359.664062 293.148438 L 358.296875 292.488281 L 356.941406 291.8125 L 355.597656 291.121094 L 354.265625 290.410156 L 352.945312 289.6875 L 351.636719 288.949219 L 350.339844 288.195312 L 349.058594 287.429688 L 347.785156 286.644531 L 346.527344 285.847656 L 345.28125 285.035156 L 344.046875 284.207031 L 342.828125 283.367188 L 341.625 282.507812 L 340.433594 281.640625 L 339.257812 280.757812 L 338.09375 279.859375 L 336.945312 278.949219 L 335.8125 278.027344 L 334.695312 277.089844 L 333.59375 276.140625 L 332.507812 275.175781 L 331.4375 274.203125 L 330.378906 273.214844 L 329.339844 272.214844 L 328.320312 271.203125 L 327.3125 270.179688 L 326.324219 269.144531 L 325.351562 268.097656 L 324.394531 267.042969 L 323.457031 265.972656 L 322.535156 264.894531 L 321.632812 263.804688 L 320.746094 262.703125 L 319.878906 261.59375 L 319.03125 260.472656 L 318.199219 259.339844 L 317.386719 258.199219 L 316.59375 257.050781 L 315.816406 255.894531 L 315.0625 254.726562 L 314.324219 253.550781 L 313.605469 252.363281 L 312.90625 251.171875 L 312.226562 249.972656 L 311.566406 248.761719 L 310.925781 247.546875 L 310.304688 246.324219 L 309.707031 245.09375 L 309.125 243.855469 L 308.566406 242.609375 L 308.023438 241.359375 L 307.503906 240.101562 L 307.003906 238.839844 L 306.527344 237.570312 L 306.070312 236.296875 L 305.632812 235.019531 L 305.214844 233.734375 L 304.820312 232.445312 L 304.445312 231.152344 L 304.089844 229.855469 L 303.757812 228.554688 L 303.445312 227.25 L 303.15625 225.941406 L 302.886719 224.628906 L 302.640625 223.3125 L 302.414062 221.996094 L 302.210938 220.675781 L 302.027344 219.351562 L 301.863281 218.027344 L 301.722656 216.703125 L 301.605469 215.375 L 301.507812 214.042969 L 301.433594 212.714844 L 301.378906 211.382812 L 301.34375 210.050781 L 301.335938 208.71875 "/>
<g style="fill:rgb(0%,0%,0%);fill-opacity:1;">
  <use xlink:href="#glyph0-1" x="517.208579" y="120.344443"/>
  <use xlink:href="#glyph0-2" x="524.208579" y="120.344443"/>
  <use xlink:href="#glyph0-3" x="527.208579" y="120.344443"/>
  <use xlink:href="#glyph0-4" x="539.208579" y="120.344443"/>
  <use xlink:href="#glyph0-5" x="546.208579" y="120.344443"/>
</g>
<path style="fill:none;stroke-width:0.85;stroke-linecap:round;stroke-linejoin:round;stroke:rgb(0%,0%,0%);stroke-opacity:1;comp-op:src;clip-to-self:true;stroke-miterlimit:10;" d="M 430.757812 151.324219 L 430.757812 190.203125 L 456.59375 190.203125 L 456.59375 151.324219 L 430.757812 151.324219 "/>
<path style="fill:none;stroke-width:0.85;stroke-linecap:round;stroke-linejoin:round;stroke:rgb(0%,0%,0%);stroke-opacity:1;comp-op:src;clip-to-self:true;stroke-miterlimit:10;" d="M 430.835938 151.871094 L 443.71875 141.96875 "/>
<path style="fill:none;stroke-width:0.85;stroke-linecap:round;stroke-linejoin:round;stroke:rgb(0%,0%,0%);stroke-opacity:1;comp-op:src;clip-to-self:true;stroke-miterlimit:10;" d="M 444.925781 142.101562 L 457.117188 151.105469 "/>
<g style="fill:rgb(0%,0%,0%);fill-opacity:1;">
  <use xlink:href="#glyph0-1" x="426.250942" y="214.138875"/>
  <use xlink:href="#glyph0-2" x="433.250942" y="214.138875"/>
  <use xlink:href="#glyph0-3" x="436.250942" y="214.138875"/>
  <use xlink:href="#glyph0-4" x="448.250942" y="214.138875"/>
  <use xlink:href="#glyph0-6" x="455.250942" y="214.138875"/>
</g>
<path style="fill-rule:nonzero;fill:rgb(0%,0%,0%);fill-opacity:0.501961;stroke-width:0.85;stroke-linecap:round;stroke-linejoin:round;stroke:rgb(0%,0%,0%);stroke-opacity:1;comp-op:src;clip-to-self:true;stroke-miterlimit:10;" d="M 439.269531 184.210938 L 439.269531 201.695312 L 447.054688 201.695312 L 447.054688 184.210938 L 439.269531 184.210938 "/>
<path style="fill-rule:nonzero;fill:rgb(0%,0%,0%);fill-opacity:0.501961;stroke-width:0.85;stroke-linecap:round;stroke-linejoin:round;stroke:rgb(0%,0%,0%);stroke-opacity:1;comp-op:src;clip-to-self:true;stroke-miterlimit:10;" d="M 53.851562 30.28125 L 53.957031 29.574219 L 54.265625 28.917969 L 54.757812 28.351562 L 55.398438 27.917969 L 56.140625 27.644531 L 56.941406 27.554688 L 57.742188 27.644531 L 58.484375 27.917969 L 59.125 28.351562 L 59.617188 28.917969 L 59.925781 29.574219 L 60.03125 30.28125 L 59.925781 30.984375 L 59.617188 31.640625 L 59.125 32.207031 L 58.484375 32.640625 L 57.742188 32.914062 L 56.941406 33.003906 L 56.140625 32.914062 L 55.398438 32.640625 L 54.757812 32.207031 L 54.265625 31.640625 L 53.957031 30.984375 L 53.851562 30.28125 "/>
<path style="fill-rule:nonzero;fill:rgb(0%,0%,0%);fill-opacity:0.501961;stroke-width:0.85;stroke-linecap:round;stroke-linejoin:round;stroke:rgb(0%,0%,0%);stroke-opacity:1;comp-op:src;clip-to-self:true;stroke-miterlimit:10;" d="M 117.335938 112.765625 L 117.445312 111.835938 L 117.765625 110.96875 L 118.277344 110.222656 L 118.941406 109.652344 L 119.714844 109.292969 L 120.546875 109.167969 L 121.378906 109.292969 L 122.152344 109.652344 L 122.820312 110.222656 L 123.328125 110.96875 L 123.648438 111.835938 L 123.757812 112.765625 L 123.648438 113.695312 L 123.328125 114.5625 L 122.820312 115.308594 L 122.152344 115.878906 L 121.378906 116.238281 L 120.546875 116.363281 L 119.714844 116.238281 L 118.941406 115.878906 L 118.277344 115.308594 L 117.765625 114.5625 L 117.445312 113.695312 L 117.335938 112.765625 "/>
<path style="fill-rule:nonzero;fill:rgb(0%,0%,0%);fill-opacity:0.501961;stroke-width:0.85;stroke-linecap:round;stroke-linejoin:round;stroke:rgb(0%,0%,0%);stroke-opacity:1;comp-op:src;clip-to-self:true;stroke-miterlimit:10;" d="M 781.574219 54.523438 L 781.667969 53.519531 L 781.941406 52.585938 L 782.375 51.78125 L 782.941406 51.164062 L 783.601562 50.777344 L 784.308594 50.644531 L 785.015625 50.777344 L 785.675781 51.164062 L 786.242188 51.78125 L 786.675781 52.585938 L 786.949219 53.519531 L 787.042969 54.523438 L 786.949219 55.527344 L 786.675781 56.464844 L 786.242188 57.265625 L 785.675781 57.882812 L 785.015625 58.269531 L 784.308594 58.402344 L 783.601562 58.269531 L 782.941406 57.882812 L 782.375 57.265625 L 781.941406 56.464844 L 781.667969 55.527344 L 781.574219 54.523438 "/>
<path style="fill-rule:nonzero;fill:rgb(0%,0%,0%);fill-opacity:0.501961;stroke-width:0.85;stroke-linecap:round;stroke-linejoin:round;stroke:rgb(0%,0%,0%);stroke-opacity:1;comp-op:src;clip-to-self:true;stroke-miterlimit:10;" d="M 487.984375 16.441406 L 488.132812 15.734375 L 488.5625 15.078125 L 489.246094 14.511719 L 490.140625 14.078125 L 491.179688 13.804688 L 492.292969 13.710938 L 493.40625 13.804688 L 494.445312 14.078125 L 495.335938 14.511719 L 496.023438 15.078125 L 496.453125 15.734375 L 496.597656 16.441406 L 496.453125 17.148438 L 496.023438 17.808594 L 495.335938 18.375 L 494.445312 18.808594 L 493.40625 19.082031 L 492.292969 19.171875 L 491.179688 19.082031 L 490.140625 18.808594 L 489.246094 18.375 L 488.5625 17.808594 L 488.132812 17.148438 L 487.984375 16.441406 "/>
<path style="fill-rule:nonzero;fill:rgb(0%,0%,0%);fill-opacity:0.501961;stroke-width:0.85;stroke-linecap:round;stroke-linejoin:round;stroke:rgb(0%,0%,0%);stroke-opacity:1;comp-op:src;clip-to-self:true;stroke-miterlimit:10;" d="M 641.363281 310.570312 L 641.503906 309.429688 L 641.914062 308.363281 L 642.570312 307.449219 L 643.425781 306.746094 L 644.421875 306.304688 L 645.488281 306.15625 L 646.554688 306.304688 L 647.550781 306.746094 L 648.40625 307.449219 L 649.058594 308.363281 L 649.472656 309.429688 L 649.613281 310.570312 L 649.472656 311.714844 L 649.058594 312.78125 L 648.40625 313.695312 L 647.550781 314.398438 L 646.554688 314.835938 L 645.488281 314.988281 L 644.421875 314.835938 L 643.425781 314.398438 L 642.570312 313.695312 L 641.914062 312.78125 L 641.503906 311.714844 L 641.363281 310.570312 "/>
<path style="fill-rule:nonzero;fill:rgb(0%,0%,0%);fill-opacity:0.501961;stroke-width:0.85;stroke-linecap:round;stroke-linejoin:round;stroke:rgb(0%,0%,0%);stroke-opacity:1;comp-op:src;clip-to-self:true;stroke-miterlimit:10;" d="M 174.351562 394.953125 L 174.441406 393.859375 L 174.703125 392.835938 L 175.121094 391.960938 L 175.664062 391.289062 L 176.292969 390.867188 L 176.972656 390.722656 L 177.652344 390.867188 L 178.28125 391.289062 L 178.824219 391.960938 L 179.242188 392.835938 L 179.503906 393.859375 L 179.59375 394.953125 L 179.503906 396.046875 L 179.242188 397.070312 L 178.824219 397.945312 L 178.28125 398.617188 L 177.652344 399.039062 L 176.972656 399.183594 L 176.292969 399.039062 L 175.664062 398.617188 L 175.121094 397.945312 L 174.703125 397.070312 L 174.441406 396.046875 L 174.351562 394.953125 "/>
</g>
</svg>
